(module molex_5051100592_5P (layer F.Cu) (tedit 5E0263CD)
  (attr smd)
  (fp_text reference REF** (at 6.72 8.8) (layer F.SilkS)
    (effects (font (size 1 1) (thickness 0.15)))
  )
  (fp_text value molex_5051100592_5P (at 6.72 7.8) (layer F.Fab)
    (effects (font (size 1 1) (thickness 0.15)))
  )
  (pad 1 smd rect (at 0 0 90) (size 1 0.3) (layers F.Cu F.Paste F.Mask))
  (pad 2 smd rect (at 0.5 0 90) (size 1 0.3) (layers F.Cu F.Paste F.Mask))
  (pad 3 smd rect (at 1 0 90) (size 1 0.3) (layers F.Cu F.Paste F.Mask))
  (pad 4 smd rect (at 1.5 0 90) (size 1 0.3) (layers F.Cu F.Paste F.Mask))
  (pad 5 smd rect (at 2 0 90) (size 1 0.3) (layers F.Cu F.Paste F.Mask))
  (pad "" smd rect (at -2.3 2.7 90) (size 1.3 2) (layers F.Cu F.Paste F.Mask))
  (pad "" smd rect (at 4.3 2.7 90) (size 1.3 2) (layers F.Cu F.Paste F.Mask))
  (model ${KIPRJMOD}/../lib/models/5051100592.stp
    (offset (xyz 1 -3.85 0))
    (scale (xyz 1 1 1))
    (rotate (xyz -90 0 0))
  )
)
