EESchema Schematic File Version 4
EELAYER 30 0
EELAYER END
$Descr B 17000 11000
encoding utf-8
Sheet 1 2
Title "Procon GCC Main PCB"
Date "2019-12-18"
Rev "0.1"
Comp "Luberry's Custom Controllers"
Comment1 ""
Comment2 ""
Comment3 ""
Comment4 ""
$EndDescr
$Comp
L gcc:CNT-DOL U1
U 1 1 5DDCD661
P 4000 5850
F 0 "U1" H 2900 8450 50  0000 C CNN
F 1 "CNT-DOL" H 2900 8250 50  0000 C CNN
F 2 "Package_QFP:MQFP-44_10x10mm_P0.8mm" H 2850 9850 50  0001 C CNN
F 3 "" H 2800 8500 50  0001 C CNN
	1    4000 5850
	1    0    0    -1  
$EndComp
Wire Wire Line
	1950 3150 1950 3250
Connection ~ 1950 3250
Wire Wire Line
	1950 3250 1950 3350
Connection ~ 1950 3350
Wire Wire Line
	1950 3350 1950 3450
Connection ~ 1950 3450
Wire Wire Line
	1950 3450 1950 3550
Connection ~ 1950 3550
Wire Wire Line
	1950 3550 1950 3650
Connection ~ 1950 3650
Wire Wire Line
	1950 3650 1950 3750
Connection ~ 1950 3750
Wire Wire Line
	1950 3750 1950 3850
Connection ~ 1950 3850
Wire Wire Line
	1950 3850 1950 3950
$Comp
L power:GNDD #PWR0101
U 1 1 5DDD0698
P 1950 3950
F 0 "#PWR0101" H 1950 3700 50  0001 C CNN
F 1 "GNDD" H 1954 3795 50  0000 C CNN
F 2 "" H 1950 3950 50  0001 C CNN
F 3 "" H 1950 3950 50  0001 C CNN
	1    1950 3950
	1    0    0    -1  
$EndComp
Connection ~ 1950 3950
Wire Wire Line
	1950 3000 1950 2900
Connection ~ 1950 2600
Wire Wire Line
	1950 2600 1950 2500
Connection ~ 1950 2700
Wire Wire Line
	1950 2700 1950 2600
Connection ~ 1950 2800
Wire Wire Line
	1950 2800 1950 2700
Connection ~ 1950 2900
Wire Wire Line
	1950 2900 1950 2800
$Comp
L power:+3V3 #PWR0102
U 1 1 5DDD10F8
P 1950 2500
F 0 "#PWR0102" H 1950 2350 50  0001 C CNN
F 1 "+3V3" H 1965 2673 50  0000 C CNN
F 2 "" H 1950 2500 50  0001 C CNN
F 3 "" H 1950 2500 50  0001 C CNN
	1    1950 2500
	1    0    0    -1  
$EndComp
Connection ~ 1950 2500
$Comp
L Connector_Generic:Conn_01x14 J2
U 1 1 5DDD1F9E
P 5400 2100
F 0 "J2" V 5550 2650 50  0000 L CNN
F 1 "To Button Board" V 5550 1800 50  0000 L CNN
F 2 "procon_gcc:molex_5051101492_14P" H 5400 2100 50  0001 C CNN
F 3 "https://www.molex.com/pdm_docs/sd/5051101492_sd.pdf" H 5400 2100 50  0001 C CNN
F 4 "https://www.digikey.com/product-detail/en/molex/5051101492/WM12370CT-ND/5726229" H 5400 2100 50  0001 C CNN "Digikey"
	1    5400 2100
	0    -1   -1   0   
$EndComp
$Comp
L power:GNDD #PWR0103
U 1 1 5DDD4C6A
P 6100 2300
F 0 "#PWR0103" H 6100 2050 50  0001 C CNN
F 1 "GNDD" V 6104 2190 50  0000 R CNN
F 2 "" H 6100 2300 50  0001 C CNN
F 3 "" H 6100 2300 50  0001 C CNN
	1    6100 2300
	1    0    0    -1  
$EndComp
Text GLabel 5200 2300 3    50   Input ~ 0
BTN_ST
Text GLabel 4800 2300 3    50   Input ~ 0
BTN_A
Text GLabel 4900 2300 3    50   Input ~ 0
BTN_B
Text GLabel 5100 2300 3    50   Input ~ 0
BTN_Y
Text GLabel 5000 2300 3    50   Input ~ 0
BTN_X
Text GLabel 5300 2300 3    50   Input ~ 0
BTN_ZL
Text GLabel 5400 2300 3    50   Input ~ 0
BTN_ZR
Text GLabel 5500 2300 3    50   Input ~ 0
BTN_LT
Text GLabel 5600 2300 3    50   Input ~ 0
BTN_RT
Text GLabel 5700 2300 3    50   Input ~ 0
BTN_DP_U
Text GLabel 5800 2300 3    50   Input ~ 0
BTN_DP_D
Text GLabel 5900 2300 3    50   Input ~ 0
BTN_DP_L
Text GLabel 6000 2300 3    50   Input ~ 0
BTN_DP_R
$Sheet
S 4500 3100 2200 1400
U 5DDDA801
F0 "Button Board" 50
F1 "Button Board.sch" 50
$EndSheet
Text GLabel 3350 4200 3    50   Input ~ 0
BTN_A
Text GLabel 3450 4200 3    50   Input ~ 0
BTN_B
Text GLabel 3150 4200 3    50   Input ~ 0
BTN_Y
Text GLabel 3050 4200 3    50   Input ~ 0
BTN_X
Text GLabel 2750 4200 3    50   Input ~ 0
BTN_ST
Text GLabel 2650 4200 3    50   Input ~ 0
BTN_DP_D
Text GLabel 2450 4200 3    50   Input ~ 0
BTN_DP_U
Text GLabel 2550 4200 3    50   Input ~ 0
BTN_DP_R
Text GLabel 3800 3650 2    50   Input ~ 0
ADC_RT
Text GLabel 3800 3550 2    50   Input ~ 0
ADC_Ry
Text GLabel 3800 3450 2    50   Input ~ 0
ADC_Rx
Text GLabel 3800 3350 2    50   Input ~ 0
ADC_Ly
Text GLabel 3800 3250 2    50   Input ~ 0
ADC_Lx
Text GLabel 3800 3150 2    50   Input ~ 0
ADC_LT
Text GLabel 6550 6250 0    50   Input ~ 0
ADC_RT
Text GLabel 6550 6400 0    50   Input ~ 0
ADC_Ry
Text GLabel 6550 6550 0    50   Input ~ 0
ADC_Rx
Text GLabel 6550 6700 0    50   Input ~ 0
ADC_Ly
Text GLabel 6550 6850 0    50   Input ~ 0
ADC_Lx
Text GLabel 6550 7000 0    50   Input ~ 0
ADC_LT
$Comp
L Device:C_Small C11
U 1 1 5DE86EDC
P 6650 6700
F 0 "C11" V 6700 6600 30  0000 C CNN
F 1 "1uf" V 6600 6600 30  0000 C CNN
F 2 "Capacitor_SMD:C_0603_1608Metric_Pad1.05x0.95mm_HandSolder" H 6650 6700 50  0001 C CNN
F 3 "~" H 6650 6700 50  0001 C CNN
	1    6650 6700
	0    -1   -1   0   
$EndComp
Wire Wire Line
	6750 6700 6800 6700
$Comp
L Device:C_Small C10
U 1 1 5DE88C9B
P 6650 6550
F 0 "C10" V 6700 6450 30  0000 C CNN
F 1 "1uf" V 6600 6450 30  0000 C CNN
F 2 "Capacitor_SMD:C_0603_1608Metric_Pad1.05x0.95mm_HandSolder" H 6650 6550 50  0001 C CNN
F 3 "~" H 6650 6550 50  0001 C CNN
	1    6650 6550
	0    -1   -1   0   
$EndComp
Wire Wire Line
	6750 6550 6800 6550
$Comp
L Device:C_Small C9
U 1 1 5DE8967C
P 6650 6400
F 0 "C9" V 6700 6300 30  0000 C CNN
F 1 "1uf" V 6600 6300 30  0000 C CNN
F 2 "Capacitor_SMD:C_0603_1608Metric_Pad1.05x0.95mm_HandSolder" H 6650 6400 50  0001 C CNN
F 3 "~" H 6650 6400 50  0001 C CNN
	1    6650 6400
	0    -1   -1   0   
$EndComp
Wire Wire Line
	6750 6400 6800 6400
$Comp
L Device:C_Small C8
U 1 1 5DE89687
P 6650 6250
F 0 "C8" V 6700 6150 30  0000 C CNN
F 1 "1uf" V 6600 6150 30  0000 C CNN
F 2 "Capacitor_SMD:C_0603_1608Metric_Pad1.05x0.95mm_HandSolder" H 6650 6250 50  0001 C CNN
F 3 "~" H 6650 6250 50  0001 C CNN
	1    6650 6250
	0    -1   -1   0   
$EndComp
Wire Wire Line
	6750 6250 6800 6250
$Comp
L Device:C_Small C13
U 1 1 5DE8A7E0
P 6650 7000
F 0 "C13" V 6700 6900 30  0000 C CNN
F 1 "1uf" V 6600 6900 30  0000 C CNN
F 2 "Capacitor_SMD:C_0603_1608Metric_Pad1.05x0.95mm_HandSolder" H 6650 7000 50  0001 C CNN
F 3 "~" H 6650 7000 50  0001 C CNN
	1    6650 7000
	0    -1   -1   0   
$EndComp
Wire Wire Line
	6750 7000 6800 7000
$Comp
L Device:C_Small C12
U 1 1 5DE8A7EB
P 6650 6850
F 0 "C12" V 6700 6750 30  0000 C CNN
F 1 "1uf" V 6600 6750 30  0000 C CNN
F 2 "Capacitor_SMD:C_0603_1608Metric_Pad1.05x0.95mm_HandSolder" H 6650 6850 50  0001 C CNN
F 3 "~" H 6650 6850 50  0001 C CNN
	1    6650 6850
	0    -1   -1   0   
$EndComp
Wire Wire Line
	6750 6850 6800 6850
Wire Wire Line
	6800 6250 6800 6400
Connection ~ 6800 6400
Wire Wire Line
	6800 6400 6800 6550
Connection ~ 6800 6550
Wire Wire Line
	6800 6550 6800 6700
Connection ~ 6800 6700
Wire Wire Line
	6800 6700 6800 6850
Connection ~ 6800 6850
Wire Wire Line
	6800 6850 6800 7000
Connection ~ 6800 7000
Wire Wire Line
	6800 7000 6800 7100
$Comp
L power:GNDD #PWR0109
U 1 1 5DE8CC7D
P 6800 7100
F 0 "#PWR0109" H 6800 6850 50  0001 C CNN
F 1 "GNDD" H 6804 6945 50  0000 C CNN
F 2 "" H 6800 7100 50  0001 C CNN
F 3 "" H 6800 7100 50  0001 C CNN
	1    6800 7100
	1    0    0    -1  
$EndComp
Text GLabel 2850 4200 3    50   Input ~ 0
RT
Text GLabel 2950 4200 3    50   Input ~ 0
LT
Text GLabel 3250 4200 3    50   Input ~ 0
Z
Text GLabel 5250 5250 2    50   Input ~ 0
ADC_RT
Text GLabel 5250 6300 2    50   Input ~ 0
ADC_LT
Text GLabel 5250 5350 2    50   Input ~ 0
Z
Text GLabel 5250 6400 2    50   Input ~ 0
DP_L
Text GLabel 5250 5150 2    50   Input ~ 0
RT
Text GLabel 5250 6200 2    50   Input ~ 0
LT
Text GLabel 4850 6300 0    50   Input ~ 0
BTN_ZL
Text GLabel 4850 5250 0    50   Input ~ 0
BTN_ZR
Text GLabel 4850 6800 0    50   Input ~ 0
BTN_LT
Text GLabel 4850 5750 0    50   Input ~ 0
BTN_RT
$Comp
L Switch:SW_SP3T SW4
U 1 1 5DEA8CB0
P 5050 5250
F 0 "SW4" H 5050 5533 50  0000 C CNN
F 1 "ZR_SW" H 5050 5442 50  0000 C CNN
F 2 "procon_gcc:NIDEC-CS-4-13NA" H 4425 5425 50  0001 C CNN
F 3 "https://www.nidec-copal-electronics.com/e/catalog/switch/cs-4.pdf" H 4425 5425 50  0001 C CNN
F 4 "https://www.digikey.com/product-detail/en/nidec-copal-electronics/CS-4-13NTA/563-1035-1-ND/948422" H 5050 5250 50  0001 C CNN "Digikey"
	1    5050 5250
	1    0    0    -1  
$EndComp
Text GLabel 5250 5750 2    50   Input ~ 0
ADC_RT
Text GLabel 5250 5850 2    50   Input ~ 0
Z
Text GLabel 5250 5650 2    50   Input ~ 0
RT
Text GLabel 5250 6800 2    50   Input ~ 0
ADC_LT
Text GLabel 5250 6900 2    50   Input ~ 0
DP_L
$Comp
L Switch:SW_SP3T SW5
U 1 1 5DEAF4E9
P 5050 5750
F 0 "SW5" H 5050 6033 50  0000 C CNN
F 1 "RT_SW" H 5050 5942 50  0000 C CNN
F 2 "procon_gcc:NIDEC-CS-4-13NA" H 4425 5925 50  0001 C CNN
F 3 "https://www.nidec-copal-electronics.com/e/catalog/switch/cs-4.pdf" H 4425 5925 50  0001 C CNN
F 4 "https://www.digikey.com/product-detail/en/nidec-copal-electronics/CS-4-13NTA/563-1035-1-ND/948422" H 5050 5750 50  0001 C CNN "Digikey"
	1    5050 5750
	1    0    0    -1  
$EndComp
$Comp
L Switch:SW_SP3T SW6
U 1 1 5DEAFF6E
P 5050 6300
F 0 "SW6" H 5050 6583 50  0000 C CNN
F 1 "LR_SW" H 5050 6492 50  0000 C CNN
F 2 "procon_gcc:NIDEC-CS-4-13NA" H 4425 6475 50  0001 C CNN
F 3 "https://www.nidec-copal-electronics.com/e/catalog/switch/cs-4.pdf" H 4425 6475 50  0001 C CNN
F 4 "https://www.digikey.com/product-detail/en/nidec-copal-electronics/CS-4-13NTA/563-1035-1-ND/948422" H 5050 6300 50  0001 C CNN "Digikey"
	1    5050 6300
	1    0    0    -1  
$EndComp
$Comp
L Switch:SW_SP3T SW7
U 1 1 5DEB074B
P 5050 6800
F 0 "SW7" H 5050 7083 50  0000 C CNN
F 1 "LT_SW" H 5050 6992 50  0000 C CNN
F 2 "procon_gcc:NIDEC-CS-4-13NA" H 4425 6975 50  0001 C CNN
F 3 "https://www.nidec-copal-electronics.com/e/catalog/switch/cs-4.pdf" H 4425 6975 50  0001 C CNN
F 4 "https://www.digikey.com/product-detail/en/nidec-copal-electronics/CS-4-13NTA/563-1035-1-ND/948422" H 5050 6800 50  0001 C CNN "Digikey"
	1    5050 6800
	1    0    0    -1  
$EndComp
Text GLabel 5250 6700 2    50   Input ~ 0
LT
$Comp
L Device:C_Small C14
U 1 1 5DEB8158
P 3700 5250
F 0 "C14" V 3750 5350 30  0000 C CNN
F 1 ".15uF" V 3650 5350 30  0000 C CNN
F 2 "Capacitor_SMD:C_0603_1608Metric_Pad1.05x0.95mm_HandSolder" H 3700 5250 50  0001 C CNN
F 3 "~" H 3700 5250 50  0001 C CNN
	1    3700 5250
	0    1    1    0   
$EndComp
$Comp
L Device:C_Small C15
U 1 1 5DEBCBA5
P 3700 5450
F 0 "C15" V 3750 5550 30  0000 C CNN
F 1 ".22uF" V 3650 5550 30  0000 C CNN
F 2 "Capacitor_SMD:C_0603_1608Metric_Pad1.05x0.95mm_HandSolder" H 3700 5450 50  0001 C CNN
F 3 "~" H 3700 5450 50  0001 C CNN
	1    3700 5450
	0    1    1    0   
$EndComp
$Comp
L Device:C_Small C16
U 1 1 5DEBEE1E
P 3700 5650
F 0 "C16" V 3750 5750 30  0000 C CNN
F 1 ".33uF" V 3650 5750 30  0000 C CNN
F 2 "Capacitor_SMD:C_0603_1608Metric_Pad1.05x0.95mm_HandSolder" H 3700 5650 50  0001 C CNN
F 3 "~" H 3700 5650 50  0001 C CNN
	1    3700 5650
	0    1    1    0   
$EndComp
$Comp
L Device:C_Small C17
U 1 1 5DEBEE28
P 3700 5850
F 0 "C17" V 3750 5950 30  0000 C CNN
F 1 ".68uF" V 3650 5950 30  0000 C CNN
F 2 "Capacitor_SMD:C_0603_1608Metric_Pad1.05x0.95mm_HandSolder" H 3700 5850 50  0001 C CNN
F 3 "~" H 3700 5850 50  0001 C CNN
	1    3700 5850
	0    1    1    0   
$EndComp
Wire Wire Line
	3500 5500 3600 5500
Wire Wire Line
	3600 5500 3600 5450
Wire Wire Line
	3500 5600 3600 5600
Wire Wire Line
	3600 5600 3600 5650
Wire Wire Line
	3500 5700 3600 5700
Wire Wire Line
	3600 5700 3600 5850
Wire Wire Line
	3500 5400 3600 5400
Wire Wire Line
	3600 5400 3600 5250
$Comp
L 2019-12-03_22-57-15:A6S-4104-H SW9
U 1 1 5DED3B3E
P 1900 5400
F 0 "SW9" H 2700 5787 60  0000 C CNN
F 1 "RySnapback" H 2700 5681 60  0000 C CNN
F 2 "footprints:A6S-4104-H" H 2700 5640 60  0001 C CNN
F 3 "" H 1900 5400 60  0000 C CNN
F 4 "https://www.digikey.com/product-detail/en/A6S-4104-H/SW1011-ND/1506395/?itemSeq=311631401" H 1900 5400 50  0001 C CNN "Digikey"
	1    1900 5400
	1    0    0    -1  
$EndComp
Wire Wire Line
	1900 5400 1900 5500
Connection ~ 1900 5500
Connection ~ 1900 5600
Wire Wire Line
	1900 5600 1900 5700
Wire Wire Line
	3800 5250 3900 5250
Wire Wire Line
	3900 5850 3800 5850
Wire Wire Line
	3800 5650 3900 5650
Connection ~ 3900 5650
Wire Wire Line
	3900 5650 3900 5850
Wire Wire Line
	3800 5450 3900 5450
Wire Wire Line
	3900 5250 3900 5450
Connection ~ 3900 5450
Wire Wire Line
	3900 5450 3900 5650
$Comp
L power:GNDD #PWR0110
U 1 1 5DEE2D51
P 3900 5850
F 0 "#PWR0110" H 3900 5600 50  0001 C CNN
F 1 "GNDD" H 3904 5695 50  0000 C CNN
F 2 "" H 3900 5850 50  0001 C CNN
F 3 "" H 3900 5850 50  0001 C CNN
	1    3900 5850
	1    0    0    -1  
$EndComp
Connection ~ 3900 5850
Text GLabel 1900 6550 0    50   Input ~ 0
ADC_Rx
Text GLabel 1900 7500 0    50   Input ~ 0
ADC_Ly
Text GLabel 1900 8650 0    50   Input ~ 0
ADC_Lx
$Comp
L Device:C_Small C18
U 1 1 5DEE42AE
P 3700 6250
F 0 "C18" V 3750 6350 30  0000 C CNN
F 1 ".15uF" V 3650 6350 30  0000 C CNN
F 2 "Capacitor_SMD:C_0603_1608Metric_Pad1.05x0.95mm_HandSolder" H 3700 6250 50  0001 C CNN
F 3 "~" H 3700 6250 50  0001 C CNN
	1    3700 6250
	0    1    1    0   
$EndComp
$Comp
L Device:C_Small C20
U 1 1 5DEE42C2
P 3700 6650
F 0 "C20" V 3750 6750 30  0000 C CNN
F 1 ".33uF" V 3650 6750 30  0000 C CNN
F 2 "Capacitor_SMD:C_0603_1608Metric_Pad1.05x0.95mm_HandSolder" H 3700 6650 50  0001 C CNN
F 3 "~" H 3700 6650 50  0001 C CNN
	1    3700 6650
	0    1    1    0   
$EndComp
$Comp
L Device:C_Small C21
U 1 1 5DEE42CC
P 3700 6850
F 0 "C21" V 3750 6950 30  0000 C CNN
F 1 ".68uF" V 3650 6950 30  0000 C CNN
F 2 "Capacitor_SMD:C_0603_1608Metric_Pad1.05x0.95mm_HandSolder" H 3700 6850 50  0001 C CNN
F 3 "~" H 3700 6850 50  0001 C CNN
	1    3700 6850
	0    1    1    0   
$EndComp
Wire Wire Line
	3500 6500 3600 6500
Wire Wire Line
	3500 6600 3600 6600
Wire Wire Line
	3600 6600 3600 6650
Wire Wire Line
	3500 6700 3600 6700
Wire Wire Line
	3600 6700 3600 6850
$Comp
L 2019-12-03_22-57-15:A6S-4104-H SW10
U 1 1 5DEE42DE
P 1900 6400
F 0 "SW10" H 2700 6787 60  0000 C CNN
F 1 "RxSnapback" H 2700 6681 60  0000 C CNN
F 2 "footprints:A6S-4104-H" H 2700 6640 60  0001 C CNN
F 3 "" H 1900 6400 60  0000 C CNN
	1    1900 6400
	1    0    0    -1  
$EndComp
Wire Wire Line
	1900 6400 1900 6500
Connection ~ 1900 6500
Connection ~ 1900 6600
Wire Wire Line
	1900 6600 1900 6700
Wire Wire Line
	3800 6250 3900 6250
Wire Wire Line
	3900 6850 3800 6850
Wire Wire Line
	3800 6650 3900 6650
Connection ~ 3900 6650
Wire Wire Line
	3900 6650 3900 6850
$Comp
L power:GNDD #PWR0111
U 1 1 5DEE42F6
P 3900 6850
F 0 "#PWR0111" H 3900 6600 50  0001 C CNN
F 1 "GNDD" H 3904 6695 50  0000 C CNN
F 2 "" H 3900 6850 50  0001 C CNN
F 3 "" H 3900 6850 50  0001 C CNN
	1    3900 6850
	1    0    0    -1  
$EndComp
Connection ~ 3900 6850
$Comp
L Device:C_Small C26
U 1 1 5DEE8A55
P 3700 8350
F 0 "C26" V 3750 8450 30  0000 C CNN
F 1 ".15uF" V 3650 8450 30  0000 C CNN
F 2 "Capacitor_SMD:C_0603_1608Metric_Pad1.05x0.95mm_HandSolder" H 3700 8350 50  0001 C CNN
F 3 "~" H 3700 8350 50  0001 C CNN
	1    3700 8350
	0    1    1    0   
$EndComp
$Comp
L Device:C_Small C27
U 1 1 5DEE8A5F
P 3700 8550
F 0 "C27" V 3750 8650 30  0000 C CNN
F 1 ".22uF" V 3650 8650 30  0000 C CNN
F 2 "Capacitor_SMD:C_0603_1608Metric_Pad1.05x0.95mm_HandSolder" H 3700 8550 50  0001 C CNN
F 3 "~" H 3700 8550 50  0001 C CNN
	1    3700 8550
	0    1    1    0   
$EndComp
$Comp
L Device:C_Small C28
U 1 1 5DEE8A69
P 3700 8750
F 0 "C28" V 3750 8850 30  0000 C CNN
F 1 ".33uF" V 3650 8850 30  0000 C CNN
F 2 "Capacitor_SMD:C_0603_1608Metric_Pad1.05x0.95mm_HandSolder" H 3700 8750 50  0001 C CNN
F 3 "~" H 3700 8750 50  0001 C CNN
	1    3700 8750
	0    1    1    0   
$EndComp
$Comp
L Device:C_Small C29
U 1 1 5DEE8A73
P 3700 8950
F 0 "C29" V 3750 9050 30  0000 C CNN
F 1 ".68uF" V 3650 9050 30  0000 C CNN
F 2 "Capacitor_SMD:C_0603_1608Metric_Pad1.05x0.95mm_HandSolder" H 3700 8950 50  0001 C CNN
F 3 "~" H 3700 8950 50  0001 C CNN
	1    3700 8950
	0    1    1    0   
$EndComp
Wire Wire Line
	3500 8600 3600 8600
Wire Wire Line
	3600 8600 3600 8550
Wire Wire Line
	3500 8700 3600 8700
Wire Wire Line
	3600 8700 3600 8750
Wire Wire Line
	3500 8800 3600 8800
Wire Wire Line
	3600 8800 3600 8950
Wire Wire Line
	3500 8500 3600 8500
Wire Wire Line
	3600 8500 3600 8350
$Comp
L 2019-12-03_22-57-15:A6S-4104-H SW12
U 1 1 5DEE8A85
P 1900 8500
F 0 "SW12" H 2700 8887 60  0000 C CNN
F 1 "LxSnapback" H 2700 8781 60  0000 C CNN
F 2 "footprints:A6S-4104-H" H 2700 8740 60  0001 C CNN
F 3 "" H 1900 8500 60  0000 C CNN
	1    1900 8500
	1    0    0    -1  
$EndComp
Wire Wire Line
	1900 8500 1900 8600
Connection ~ 1900 8600
Connection ~ 1900 8700
Wire Wire Line
	1900 8700 1900 8800
Wire Wire Line
	3800 8350 3900 8350
Wire Wire Line
	3900 8950 3800 8950
Wire Wire Line
	3800 8750 3900 8750
Connection ~ 3900 8750
Wire Wire Line
	3900 8750 3900 8950
Wire Wire Line
	3800 8550 3900 8550
Wire Wire Line
	3900 8350 3900 8550
Connection ~ 3900 8550
Wire Wire Line
	3900 8550 3900 8750
$Comp
L power:GNDD #PWR0112
U 1 1 5DEE8A9D
P 3900 8950
F 0 "#PWR0112" H 3900 8700 50  0001 C CNN
F 1 "GNDD" H 3904 8795 50  0000 C CNN
F 2 "" H 3900 8950 50  0001 C CNN
F 3 "" H 3900 8950 50  0001 C CNN
	1    3900 8950
	1    0    0    -1  
$EndComp
Connection ~ 3900 8950
$Comp
L Device:C_Small C22
U 1 1 5DEF6F1A
P 3700 7200
F 0 "C22" V 3750 7300 30  0000 C CNN
F 1 ".15uF" V 3650 7300 30  0000 C CNN
F 2 "Capacitor_SMD:C_0603_1608Metric_Pad1.05x0.95mm_HandSolder" H 3700 7200 50  0001 C CNN
F 3 "~" H 3700 7200 50  0001 C CNN
	1    3700 7200
	0    1    1    0   
$EndComp
$Comp
L Device:C_Small C23
U 1 1 5DEF6F24
P 3700 7400
F 0 "C23" V 3750 7500 30  0000 C CNN
F 1 ".22uF" V 3650 7500 30  0000 C CNN
F 2 "Capacitor_SMD:C_0603_1608Metric_Pad1.05x0.95mm_HandSolder" H 3700 7400 50  0001 C CNN
F 3 "~" H 3700 7400 50  0001 C CNN
	1    3700 7400
	0    1    1    0   
$EndComp
$Comp
L Device:C_Small C24
U 1 1 5DEF6F2E
P 3700 7600
F 0 "C24" V 3750 7700 30  0000 C CNN
F 1 ".33uF" V 3650 7700 30  0000 C CNN
F 2 "Capacitor_SMD:C_0603_1608Metric_Pad1.05x0.95mm_HandSolder" H 3700 7600 50  0001 C CNN
F 3 "~" H 3700 7600 50  0001 C CNN
	1    3700 7600
	0    1    1    0   
$EndComp
$Comp
L Device:C_Small C25
U 1 1 5DEF6F38
P 3700 7800
F 0 "C25" V 3750 7900 30  0000 C CNN
F 1 ".68uF" V 3650 7900 30  0000 C CNN
F 2 "Capacitor_SMD:C_0603_1608Metric_Pad1.05x0.95mm_HandSolder" H 3700 7800 50  0001 C CNN
F 3 "~" H 3700 7800 50  0001 C CNN
	1    3700 7800
	0    1    1    0   
$EndComp
Wire Wire Line
	3500 7450 3600 7450
Wire Wire Line
	3600 7450 3600 7400
Wire Wire Line
	3500 7550 3600 7550
Wire Wire Line
	3600 7550 3600 7600
Wire Wire Line
	3500 7650 3600 7650
Wire Wire Line
	3600 7650 3600 7800
Wire Wire Line
	3500 7350 3600 7350
Wire Wire Line
	3600 7350 3600 7200
$Comp
L 2019-12-03_22-57-15:A6S-4104-H SW11
U 1 1 5DEF6F4A
P 1900 7350
F 0 "SW11" H 2700 7737 60  0000 C CNN
F 1 "LySnapback" H 2700 7631 60  0000 C CNN
F 2 "footprints:A6S-4104-H" H 2700 7590 60  0001 C CNN
F 3 "" H 1900 7350 60  0000 C CNN
	1    1900 7350
	1    0    0    -1  
$EndComp
Wire Wire Line
	1900 7350 1900 7450
Connection ~ 1900 7450
Connection ~ 1900 7550
Wire Wire Line
	1900 7550 1900 7650
Wire Wire Line
	3800 7200 3900 7200
Wire Wire Line
	3900 7800 3800 7800
Wire Wire Line
	3800 7600 3900 7600
Connection ~ 3900 7600
Wire Wire Line
	3900 7600 3900 7800
Wire Wire Line
	3800 7400 3900 7400
Wire Wire Line
	3900 7200 3900 7400
Connection ~ 3900 7400
Wire Wire Line
	3900 7400 3900 7600
$Comp
L power:GNDD #PWR0113
U 1 1 5DEF6F62
P 3900 7800
F 0 "#PWR0113" H 3900 7550 50  0001 C CNN
F 1 "GNDD" H 3904 7645 50  0000 C CNN
F 2 "" H 3900 7800 50  0001 C CNN
F 3 "" H 3900 7800 50  0001 C CNN
	1    3900 7800
	1    0    0    -1  
$EndComp
Connection ~ 3900 7800
Wire Wire Line
	1900 5500 1900 5600
Wire Wire Line
	1900 8600 1900 8700
Wire Wire Line
	1900 7450 1900 7550
Wire Wire Line
	1900 6500 1900 6600
Text GLabel 1900 5550 0    50   Input ~ 0
ADC_Ry
Text GLabel 6800 8000 2    50   Input ~ 0
ADC_Ry
Text GLabel 2350 4200 3    50   Input ~ 0
BTN_DP_L
Text GLabel 6500 5200 2    50   Input ~ 0
ADC_RT
$Comp
L Device:R_Small_US R8
U 1 1 5DF5E5BA
P 6400 5200
F 0 "R8" V 6195 5200 50  0000 C CNN
F 1 "10K" V 6286 5200 50  0000 C CNN
F 2 "Resistor_SMD:R_0805_2012Metric_Pad1.15x1.40mm_HandSolder" H 6400 5200 50  0001 C CNN
F 3 "~" H 6400 5200 50  0001 C CNN
	1    6400 5200
	0    1    1    0   
$EndComp
Text GLabel 6500 5550 2    50   Input ~ 0
ADC_LT
$Comp
L Device:R_Small_US R9
U 1 1 5DF5F287
P 6400 5550
F 0 "R9" V 6195 5550 50  0000 C CNN
F 1 "10K" V 6286 5550 50  0000 C CNN
F 2 "Resistor_SMD:R_0805_2012Metric_Pad1.15x1.40mm_HandSolder" H 6400 5550 50  0001 C CNN
F 3 "~" H 6400 5550 50  0001 C CNN
	1    6400 5550
	0    1    1    0   
$EndComp
Wire Wire Line
	6300 5550 6300 5200
Connection ~ 6300 5550
$Comp
L power:GNDD #PWR0114
U 1 1 5DF6693D
P 6300 5550
F 0 "#PWR0114" H 6300 5300 50  0001 C CNN
F 1 "GNDD" H 6304 5395 50  0000 C CNN
F 2 "" H 6300 5550 50  0001 C CNN
F 3 "" H 6300 5550 50  0001 C CNN
	1    6300 5550
	1    0    0    -1  
$EndComp
Wire Wire Line
	5800 7100 5800 6900
Text Notes 2250 4850 0    79   ~ 0
Snap Back Modules\n
Text GLabel 4800 8650 3    50   Input ~ 0
ADC_Lx
Text GLabel 5500 8000 2    50   Input ~ 0
ADC_Ly
Text GLabel 6050 8650 3    50   Input ~ 0
ADC_Rx
Wire Wire Line
	6450 8000 6800 8000
Wire Wire Line
	5200 8000 5500 8000
Wire Wire Line
	6050 8400 6050 8650
Wire Wire Line
	4800 8400 4800 8650
$Comp
L power:+3V3 #PWR0115
U 1 1 5DF2A839
P 4700 8400
F 0 "#PWR0115" H 4700 8250 50  0001 C CNN
F 1 "+3V3" H 4715 8573 50  0000 C CNN
F 2 "" H 4700 8400 50  0001 C CNN
F 3 "" H 4700 8400 50  0001 C CNN
	1    4700 8400
	-1   0    0    1   
$EndComp
$Comp
L power:+3V3 #PWR0116
U 1 1 5DF29FBA
P 5950 8400
F 0 "#PWR0116" H 5950 8250 50  0001 C CNN
F 1 "+3V3" H 5965 8573 50  0000 C CNN
F 2 "" H 5950 8400 50  0001 C CNN
F 3 "" H 5950 8400 50  0001 C CNN
	1    5950 8400
	-1   0    0    1   
$EndComp
$Comp
L power:+3V3 #PWR0117
U 1 1 5DF29773
P 6450 8100
F 0 "#PWR0117" H 6450 7950 50  0001 C CNN
F 1 "+3V3" H 6465 8273 50  0000 C CNN
F 2 "" H 6450 8100 50  0001 C CNN
F 3 "" H 6450 8100 50  0001 C CNN
	1    6450 8100
	0    1    1    0   
$EndComp
$Comp
L power:+3V3 #PWR0118
U 1 1 5DF28D56
P 5200 8100
F 0 "#PWR0118" H 5200 7950 50  0001 C CNN
F 1 "+3V3" H 5215 8273 50  0000 C CNN
F 2 "" H 5200 8100 50  0001 C CNN
F 3 "" H 5200 8100 50  0001 C CNN
	1    5200 8100
	0    1    1    0   
$EndComp
$Comp
L power:GNDD #PWR0119
U 1 1 5DF28914
P 4900 8400
F 0 "#PWR0119" H 4900 8150 50  0001 C CNN
F 1 "GNDD" H 4904 8245 50  0000 C CNN
F 2 "" H 4900 8400 50  0001 C CNN
F 3 "" H 4900 8400 50  0001 C CNN
	1    4900 8400
	1    0    0    -1  
$EndComp
$Comp
L power:GNDD #PWR0120
U 1 1 5DF281AA
P 6150 8400
F 0 "#PWR0120" H 6150 8150 50  0001 C CNN
F 1 "GNDD" H 6154 8245 50  0000 C CNN
F 2 "" H 6150 8400 50  0001 C CNN
F 3 "" H 6150 8400 50  0001 C CNN
	1    6150 8400
	1    0    0    -1  
$EndComp
$Comp
L power:GNDD #PWR0121
U 1 1 5DF27602
P 6450 7900
F 0 "#PWR0121" H 6450 7650 50  0001 C CNN
F 1 "GNDD" V 6454 7790 50  0000 R CNN
F 2 "" H 6450 7900 50  0001 C CNN
F 3 "" H 6450 7900 50  0001 C CNN
	1    6450 7900
	0    -1   -1   0   
$EndComp
$Comp
L power:GNDD #PWR0122
U 1 1 5DF267B0
P 5200 7900
F 0 "#PWR0122" H 5200 7650 50  0001 C CNN
F 1 "GNDD" V 5204 7790 50  0000 R CNN
F 2 "" H 5200 7900 50  0001 C CNN
F 3 "" H 5200 7900 50  0001 C CNN
	1    5200 7900
	0    -1   -1   0   
$EndComp
$Comp
L gcc:JOYSTICK JS2
U 1 1 5DF21D7B
P 6300 8750
F 0 "JS2" H 6158 9865 50  0000 C CNN
F 1 "C Stick" H 6158 9774 50  0000 C CNN
F 2 "procon_gcc:Stickbox" H 6050 9600 50  0001 C CNN
F 3 "" H 6050 9600 50  0001 C CNN
	1    6300 8750
	1    0    0    -1  
$EndComp
$Comp
L gcc:JOYSTICK JS1
U 1 1 5DF1F692
P 5050 8750
F 0 "JS1" H 4908 9865 50  0000 C CNN
F 1 "Control Stick" H 4908 9774 50  0000 C CNN
F 2 "procon_gcc:Stickbox" H 4800 9600 50  0001 C CNN
F 3 "" H 4800 9600 50  0001 C CNN
	1    5050 8750
	1    0    0    -1  
$EndComp
Text Notes 2550 1700 0    79   ~ 0
Main ASIC
Wire Notes Line
	7250 7350 4350 7350
Text Notes 5400 7500 0    79   ~ 0
Joysticks
Text Notes 5800 4850 2    79   ~ 0
Trigger Mode Selection
Wire Notes Line
	7250 5850 5850 5850
Wire Notes Line
	5850 4700 5850 7350
Text Notes 7200 4950 2    79   ~ 0
Digital Trigger\nConversion
Text Notes 7100 6050 2    79   ~ 0
Analog Filter Caps
Text Notes 5950 1700 2    79   ~ 0
Button Board
$Comp
L Device:Resonator_Small Y1
U 1 1 5E03EDAF
P 8150 4150
F 0 "Y1" H 7982 4054 50  0000 R CNN
F 1 "4MHz" H 7982 4145 50  0000 R CNN
F 2 "Crystal:Resonator_SMD_muRata_CSTxExxV-3Pin_3.0x1.1mm_HandSoldering" H 8125 4150 50  0001 C CNN
F 3 "~" H 8125 4150 50  0001 C CNN
F 4 "https://www.digikey.com/product-detail/en/murata-electronics/CSTCR4M00G53-R0/490-1200-1-ND/584637" H 8150 4150 50  0001 C CNN "Digikey"
	1    8150 4150
	0    -1   1    0   
$EndComp
Text GLabel 2950 2300 1    47   Input ~ 0
CG1
Text GLabel 3050 2300 1    47   Input ~ 0
CG0
Text GLabel 7850 4050 0    47   Input ~ 0
CG1
Text GLabel 7850 4250 0    47   Input ~ 0
CG0
$Comp
L power:GNDD #PWR0123
U 1 1 5E069E3C
P 8350 4150
F 0 "#PWR0123" H 8350 3900 50  0001 C CNN
F 1 "GNDD" H 8354 3995 50  0000 C CNN
F 2 "" H 8350 4150 50  0001 C CNN
F 3 "" H 8350 4150 50  0001 C CNN
	1    8350 4150
	0    -1   -1   0   
$EndComp
$Comp
L Device:R_Small_US R1
U 1 1 5E06AEA0
P 7850 4150
F 0 "R1" V 7950 4150 30  0000 C CNN
F 1 "1M" V 8000 4150 30  0000 C CNN
F 2 "Resistor_SMD:R_0603_1608Metric_Pad1.05x0.95mm_HandSolder" H 7850 4150 50  0001 C CNN
F 3 "~" H 7850 4150 50  0001 C CNN
	1    7850 4150
	-1   0    0    1   
$EndComp
$Comp
L Device:R_Small_US R2
U 1 1 5E0794C0
P 7950 4250
F 0 "R2" V 8050 4250 30  0000 C CNN
F 1 "680" V 8000 4250 30  0000 C CNN
F 2 "Resistor_SMD:R_0603_1608Metric_Pad1.05x0.95mm_HandSolder" H 7950 4250 50  0001 C CNN
F 3 "~" H 7950 4250 50  0001 C CNN
	1    7950 4250
	0    -1   -1   0   
$EndComp
Wire Wire Line
	8050 4050 7850 4050
Text Notes 8400 3550 2    79   ~ 0
Clock Gen
Text GLabel 2550 2300 1    47   Input ~ 0
RMBL_STAT
Text GLabel 2450 2300 1    47   Input ~ 0
RMBL_ACT
$Comp
L power:GNDD #PWR0124
U 1 1 5E23E233
P 8200 5000
F 0 "#PWR0124" H 8200 4750 50  0001 C CNN
F 1 "GNDD" V 8204 4890 50  0000 R CNN
F 2 "" H 8200 5000 50  0001 C CNN
F 3 "" H 8200 5000 50  0001 C CNN
	1    8200 5000
	0    1    1    0   
$EndComp
$Comp
L Connector:Conn_01x02_Female J5
U 1 1 5E2DCA86
P 8550 6100
F 0 "J5" V 8350 5900 50  0000 C CNN
F 1 "RMBL_L" V 8442 6194 50  0001 C CNN
F 2 "Connector_Wire:SolderWirePad_1x02_P3.81mm_Drill0.8mm" H 8550 6100 50  0001 C CNN
F 3 "~" H 8550 6100 50  0001 C CNN
	1    8550 6100
	1    0    0    1   
$EndComp
Wire Wire Line
	7800 5950 7900 5950
Wire Wire Line
	8200 5950 8100 5950
Connection ~ 8200 5950
Wire Wire Line
	7800 6200 7800 6450
Connection ~ 7800 6200
Wire Wire Line
	7850 6200 7800 6200
Wire Wire Line
	7800 5950 7800 6200
Connection ~ 8200 6300
Wire Wire Line
	8200 6450 8200 6300
Wire Wire Line
	8200 6200 8200 6300
Connection ~ 8200 6200
Wire Wire Line
	8200 5950 8200 6200
$Comp
L Device:D_Schottky_AAK D1
U 1 1 5E23E1F3
P 8000 6200
F 0 "D1" H 8000 6300 50  0000 C CNN
F 1 " BAT400D-7-F " V 7700 6100 50  0000 C CNN
F 2 "Package_TO_SOT_SMD:SOT-23" H 8000 6200 50  0001 C CNN
F 3 "https://www.diodes.com/assets/Datasheets/ds30182.pdf" H 8000 6200 50  0001 C CNN
F 4 "https://www.digikey.com/product-detail/en/diodes-incorporated/BAT400D-7-F/BAT400D-FDICT-ND/725055" H 8000 6200 50  0001 C CNN "Digikey"
	1    8000 6200
	1    0    0    1   
$EndComp
$Comp
L Device:C_Small C32
U 1 1 5E23E212
P 8000 5950
F 0 "C32" V 7950 6050 50  0000 C CNN
F 1 "1uF" V 8100 5950 50  0000 C CNN
F 2 "Capacitor_SMD:C_0603_1608Metric_Pad1.05x0.95mm_HandSolder" H 8000 5950 50  0001 C CNN
F 3 "~" H 8000 5950 50  0001 C CNN
	1    8000 5950
	0    -1   1    0   
$EndComp
Wire Wire Line
	8200 5950 8200 5800
Text GLabel 8500 5200 2    47   Input ~ 0
RMBL_ACT
$Comp
L dk_Transistors-Bipolar-BJT-Single:MMBT2222A-7-F Q1
U 1 1 5E23E228
P 8300 5200
F 0 "Q1" H 8488 5147 60  0000 L CNN
F 1 "MMBT2222A-7-F" H 7650 4950 60  0000 L CNN
F 2 "Package_TO_SOT_SMD:SOT-23" H 8500 5400 60  0001 L CNN
F 3 "https://www.diodes.com/assets/Datasheets/ds30041.pdf" H 8500 5500 60  0001 L CNN
F 4 "MMBT2222A-FDICT-ND" H 8500 5600 60  0001 L CNN "Digi-Key_PN"
F 5 "MMBT2222A-7-F" H 8500 5700 60  0001 L CNN "MPN"
F 6 "Discrete Semiconductor Products" H 8500 5800 60  0001 L CNN "Category"
F 7 "Transistors - Bipolar (BJT) - Single" H 8500 5900 60  0001 L CNN "Family"
F 8 "https://www.diodes.com/assets/Datasheets/ds30041.pdf" H 8500 6000 60  0001 L CNN "DK_Datasheet_Link"
F 9 "/product-detail/en/diodes-incorporated/MMBT2222A-7-F/MMBT2222A-FDICT-ND/815723" H 8500 6100 60  0001 L CNN "DK_Detail_Page"
F 10 "TRANS NPN 40V 0.6A SMD SOT23-3" H 8500 6200 60  0001 L CNN "Description"
F 11 "Diodes Incorporated" H 8500 6300 60  0001 L CNN "Manufacturer"
F 12 "Active" H 8500 6400 60  0001 L CNN "Status"
	1    8300 5200
	-1   0    0    1   
$EndComp
$Comp
L Device:D_Zener_Small D2
U 1 1 5E23E208
P 8200 5500
F 0 "D2" H 8200 5600 30  0000 C CNN
F 1 " NZ9F11VST5G " H 8200 5650 30  0000 C CNN
F 2 "smd-semi:SOD-923" V 8200 5500 50  0001 C CNN
F 3 "http://www.onsemi.com/pub/Collateral/NZ9F2V4S-D.PDF" V 8200 5500 50  0001 C CNN
F 4 "https://www.digikey.com/product-detail/en/on-semiconductor/NZ9F11VST5G/NZ9F11VST5GOSCT-ND/9087647" H 8200 5500 50  0001 C CNN "Digikey"
	1    8200 5500
	0    1    1    0   
$EndComp
Text Notes 8500 4850 2    79   ~ 0
Rumble Circuit
$Comp
L Device:Fuse_Small F1
U 1 1 5E23E1FD
P 8200 5700
F 0 "F1" V 8250 5550 50  0000 L CNN
F 1 " SF-0603S070-2" H 7800 5500 50  0000 L CNN
F 2 "Fuse:Fuse_0603_1608Metric_Pad1.05x0.95mm_HandSolder" H 8200 5700 50  0001 C CNN
F 3 "https://www.bourns.com/docs/product-datasheets/sf0603s.pdf" H 8200 5700 50  0001 C CNN
F 4 "https://www.digikey.com/product-detail/en/bourns-inc/SF-0603S070-2/SF-0603S070-2CT-ND/8747910" V 8200 5700 50  0001 C CNN "Digikey"
	1    8200 5700
	0    1    1    0   
$EndComp
$Comp
L Connector:Conn_01x02_Female J6
U 1 1 5E371B2C
P 8550 6300
F 0 "J6" V 8350 6100 50  0000 C CNN
F 1 "RMBL_R" V 8442 6394 50  0001 C CNN
F 2 "Connector_Wire:SolderWirePad_1x02_P3.81mm_Drill0.8mm" H 8550 6300 50  0001 C CNN
F 3 "~" H 8550 6300 50  0001 C CNN
	1    8550 6300
	1    0    0    -1  
$EndComp
Wire Wire Line
	7800 6450 7800 6800
Connection ~ 7800 6450
Wire Wire Line
	8500 6200 8350 6200
Wire Wire Line
	8350 6200 8350 6100
Wire Wire Line
	8350 6200 8350 6300
Connection ~ 8350 6200
Wire Wire Line
	8350 6000 8300 6000
Wire Wire Line
	8300 6000 8300 6200
Wire Wire Line
	8300 6400 8350 6400
Wire Wire Line
	8300 6200 8200 6200
Connection ~ 8300 6200
Wire Wire Line
	8300 6200 8300 6400
$Comp
L power:+3.3VA #PWR0125
U 1 1 5E4724CE
P 10600 7350
F 0 "#PWR0125" H 10600 7200 50  0001 C CNN
F 1 "+3.3VA" V 10615 7478 50  0000 L CNN
F 2 "" H 10600 7350 50  0001 C CNN
F 3 "" H 10600 7350 50  0001 C CNN
	1    10600 7350
	0    1    1    0   
$EndComp
$Comp
L dk_USB-DVI-HDMI-Connectors:MUSBRM1C1M0 J1
U 1 1 5E45FD06
P 10100 7100
F 0 "J1" H 10100 8135 50  0000 C CNN
F 1 " USB4085-GF-A" H 10100 8044 50  0000 C CNN
F 2 "procon_gcc:USB4085-GF-A" H 10300 7300 60  0001 L CNN
F 3 "" H 10300 7400 60  0001 L CNN
F 4 " 2073-USB4085-GF-ACT-ND " H 10300 7500 60  0001 L CNN "Digi-Key_PN"
F 5 " USB4085-GF-A " H 10300 7600 60  0001 L CNN "MPN"
F 6 "Connectors, Interconnects" H 10300 7700 60  0001 L CNN "Category"
F 7 "USB, DVI, HDMI Connectors" H 10300 7800 60  0001 L CNN "Family"
F 8 "http://www.amphenol-icc.com/media/wysiwyg/files/drawing/musbrm1c1xx.pdf" H 10300 7900 60  0001 L CNN "DK_Datasheet_Link"
F 9 "/product-detail/en/amphenol-icc-commercial-products/MUSBRM1C1M0/MUSBRM1C1M0-ND/7805255" H 10300 8000 60  0001 L CNN "DK_Detail_Page"
F 10 "CONN RCPT TYPEC 24POS PCB R/A" H 10300 8100 60  0001 L CNN "Description"
F 11 "Amphenol ICC (Commercial Products)" H 10300 8200 60  0001 L CNN "Manufacturer"
F 12 "Active" H 10300 8300 60  0001 L CNN "Status"
	1    10100 7100
	1    0    0    -1  
$EndComp
$Comp
L power:+5VA #PWR0126
U 1 1 5E48488B
P 9600 7350
F 0 "#PWR0126" H 9600 7200 50  0001 C CNN
F 1 "+5VA" V 9615 7477 50  0000 L CNN
F 2 "" H 9600 7350 50  0001 C CNN
F 3 "" H 9600 7350 50  0001 C CNN
	1    9600 7350
	0    -1   -1   0   
$EndComp
$Comp
L power:+5VA #PWR0127
U 1 1 5E4864AC
P 10600 6850
F 0 "#PWR0127" H 10600 6700 50  0001 C CNN
F 1 "+5VA" V 10615 6978 50  0000 L CNN
F 2 "" H 10600 6850 50  0001 C CNN
F 3 "" H 10600 6850 50  0001 C CNN
	1    10600 6850
	0    1    1    0   
$EndComp
Text GLabel 10600 7050 2    50   Input ~ 0
DATA_3V3
Text GLabel 9600 7150 0    50   Input ~ 0
DATA_3V3
$Comp
L power:GNDD #PWR0128
U 1 1 5E48A719
P 9900 8050
F 0 "#PWR0128" H 9900 7800 50  0001 C CNN
F 1 "GNDD" H 9904 7895 50  0000 C CNN
F 2 "" H 9900 8050 50  0001 C CNN
F 3 "" H 9900 8050 50  0001 C CNN
	1    9900 8050
	1    0    0    -1  
$EndComp
$Comp
L power:+3.3VA #PWR0129
U 1 1 5E473781
P 9600 6850
F 0 "#PWR0129" H 9600 6700 50  0001 C CNN
F 1 "+3.3VA" V 9615 6977 50  0000 L CNN
F 2 "" H 9600 6850 50  0001 C CNN
F 3 "" H 9600 6850 50  0001 C CNN
	1    9600 6850
	0    -1   -1   0   
$EndComp
Text GLabel 10600 7650 2    50   Input ~ 0
3v3GND
Text GLabel 9600 6550 0    50   Input ~ 0
3v3GND
Text GLabel 10600 6550 2    50   Input ~ 0
5VGND
Text GLabel 9600 7650 0    50   Input ~ 0
5VGND
$Comp
L power:+5V #PWR0130
U 1 1 5E4B37D5
P 8500 6200
F 0 "#PWR0130" H 8500 6050 50  0001 C CNN
F 1 "+5V" V 8515 6328 50  0000 L CNN
F 2 "" H 8500 6200 50  0001 C CNN
F 3 "" H 8500 6200 50  0001 C CNN
	1    8500 6200
	0    1    1    0   
$EndComp
$Comp
L power:+5V #PWR0131
U 1 1 5E4B421A
P 7750 6450
F 0 "#PWR0131" H 7750 6300 50  0001 C CNN
F 1 "+5V" V 7765 6578 50  0000 L CNN
F 2 "" H 7750 6450 50  0001 C CNN
F 3 "" H 7750 6450 50  0001 C CNN
	1    7750 6450
	0    -1   -1   0   
$EndComp
NoConn ~ 9600 7550
NoConn ~ 9600 7450
NoConn ~ 10600 7550
NoConn ~ 10600 7450
NoConn ~ 10600 7250
NoConn ~ 10600 7150
NoConn ~ 10600 6750
NoConn ~ 10600 6650
NoConn ~ 10600 6950
NoConn ~ 9600 7250
NoConn ~ 9600 7050
NoConn ~ 9600 6950
NoConn ~ 9600 6750
NoConn ~ 9600 6650
Connection ~ 8000 6800
Wire Wire Line
	8000 6800 8000 6750
$Comp
L Device:R_Small_US R4
U 1 1 5E33C6C0
P 7900 6800
F 0 "R4" V 8000 6800 50  0000 C CNN
F 1 "10k" V 7800 6800 50  0000 C CNN
F 2 "Resistor_SMD:R_0603_1608Metric_Pad1.05x0.95mm_HandSolder" H 7900 6800 50  0001 C CNN
F 3 "~" H 7900 6800 50  0001 C CNN
	1    7900 6800
	0    1    -1   0   
$EndComp
$Comp
L Device:R_Small_US R3
U 1 1 5E3395D9
P 8100 6800
F 0 "R3" V 8200 6800 50  0000 C CNN
F 1 "220" V 8300 6800 50  0000 C CNN
F 2 "Resistor_SMD:R_0603_1608Metric_Pad1.05x0.95mm_HandSolder" H 8100 6800 50  0001 C CNN
F 3 "~" H 8100 6800 50  0001 C CNN
	1    8100 6800
	0    -1   1    0   
$EndComp
Text GLabel 8200 6800 2    47   Input ~ 0
RMBL_STAT
$Comp
L dk_Transistors-Bipolar-BJT-Single:MMBT2222A-7-F Q2
U 1 1 5E23E24A
P 8000 6550
F 0 "Q2" V 8000 6300 60  0000 L CNN
F 1 "MMBT2222A-7-F" V 7850 5650 60  0000 L CNN
F 2 "Package_TO_SOT_SMD:SOT-23" H 8200 6750 60  0001 L CNN
F 3 "https://www.diodes.com/assets/Datasheets/ds30041.pdf" H 8200 6850 60  0001 L CNN
F 4 "MMBT2222A-FDICT-ND" H 8200 6950 60  0001 L CNN "Digi-Key_PN"
F 5 "MMBT2222A-7-F" H 8200 7050 60  0001 L CNN "MPN"
F 6 "Discrete Semiconductor Products" H 8200 7150 60  0001 L CNN "Category"
F 7 "Transistors - Bipolar (BJT) - Single" H 8200 7250 60  0001 L CNN "Family"
F 8 "https://www.diodes.com/assets/Datasheets/ds30041.pdf" H 8200 7350 60  0001 L CNN "DK_Datasheet_Link"
F 9 "/product-detail/en/diodes-incorporated/MMBT2222A-7-F/MMBT2222A-FDICT-ND/815723" H 8200 7450 60  0001 L CNN "DK_Detail_Page"
F 10 "TRANS NPN 40V 0.6A SMD SOT23-3" H 8200 7550 60  0001 L CNN "Description"
F 11 "Diodes Incorporated" H 8200 7650 60  0001 L CNN "Manufacturer"
F 12 "Active" H 8200 7750 60  0001 L CNN "Status"
	1    8000 6550
	0    -1   -1   0   
$EndComp
Text GLabel 2700 2300 1    50   Input ~ 0
TXD0
Text GLabel 2800 2300 1    50   Input ~ 0
RXD0
Text Notes 10550 6000 2    79   ~ 0
Data Connector
Wire Notes Line
	4350 9350 4350 1500
Wire Notes Line
	1400 1500 1400 9350
Text Notes 8500 7250 2    79   ~ 0
Communication
Wire Notes Line
	7250 7100 9000 7100
Text Notes 10500 8500 2    79   ~ 0
Supply Filtering
Wire Notes Line
	9000 8350 11100 8350
$Comp
L power:GNDD #PWR0133
U 1 1 5E5CB36C
P 10750 9050
F 0 "#PWR0133" H 10750 8800 50  0001 C CNN
F 1 "GNDD" V 10754 8940 50  0000 R CNN
F 2 "" H 10750 9050 50  0001 C CNN
F 3 "" H 10750 9050 50  0001 C CNN
	1    10750 9050
	0    -1   -1   0   
$EndComp
$Comp
L Device:CP_Small C31
U 1 1 5E5B5854
P 10650 9050
F 0 "C31" V 10450 8950 50  0000 C CNN
F 1 "47uF 6.3V" V 10550 8850 50  0000 C CNN
F 2 "Capacitor_THT:CP_Radial_D4.0mm_P2.00mm" H 10650 9050 50  0001 C CNN
F 3 "~" H 10650 9050 50  0001 C CNN
	1    10650 9050
	0    -1   -1   0   
$EndComp
Wire Wire Line
	7600 8450 8100 8450
Wire Wire Line
	8400 8550 8400 8700
Connection ~ 8400 8550
$Comp
L Device:R_Small_US R5
U 1 1 5E58F1DF
P 8500 8550
F 0 "R5" V 8600 8550 50  0000 C CNN
F 1 "750" V 8700 8550 50  0000 C CNN
F 2 "Resistor_SMD:R_0603_1608Metric_Pad1.05x0.95mm_HandSolder" H 8500 8550 50  0001 C CNN
F 3 "~" H 8500 8550 50  0001 C CNN
	1    8500 8550
	0    1    -1   0   
$EndComp
$Comp
L Device:R_Small_US R7
U 1 1 5E587120
P 8400 8800
F 0 "R7" V 8500 8800 50  0000 C CNN
F 1 "100" V 8600 8800 50  0000 C CNN
F 2 "Resistor_SMD:R_0603_1608Metric_Pad1.05x0.95mm_HandSolder" H 8400 8800 50  0001 C CNN
F 3 "~" H 8400 8800 50  0001 C CNN
	1    8400 8800
	1    0    0    1   
$EndComp
Text GLabel 8400 8900 3    50   Input ~ 0
RXD0
$Comp
L power:GNDD #PWR0134
U 1 1 5E5704CF
P 8100 8450
F 0 "#PWR0134" H 8100 8200 50  0001 C CNN
F 1 "GNDD" H 8104 8295 50  0000 C CNN
F 2 "" H 8100 8450 50  0001 C CNN
F 3 "" H 8100 8450 50  0001 C CNN
	1    8100 8450
	1    0    0    -1  
$EndComp
Text GLabel 8100 7850 1    50   Input ~ 0
DATA_3V3
$Comp
L Device:L_Small L3
U 1 1 5E4CBA7A
P 8100 7950
F 0 "L3" H 8148 7996 50  0000 L CNN
F 1 "1uF" H 8148 7905 50  0000 L CNN
F 2 "Inductor_SMD:L_0805_2012Metric_Pad1.15x1.40mm_HandSolder" H 8100 7950 50  0001 C CNN
F 3 "~" H 8100 7950 50  0001 C CNN
	1    8100 7950
	1    0    0    -1  
$EndComp
Text GLabel 9650 8900 1    50   Input ~ 0
3v3GND
Text GLabel 9300 8900 1    50   Input ~ 0
5VGND
$Comp
L power:GNDD #PWR0135
U 1 1 5E4C3465
P 9650 9100
F 0 "#PWR0135" H 9650 8850 50  0001 C CNN
F 1 "GNDD" H 9654 8945 50  0000 C CNN
F 2 "" H 9650 9100 50  0001 C CNN
F 3 "" H 9650 9100 50  0001 C CNN
	1    9650 9100
	1    0    0    -1  
$EndComp
$Comp
L power:GNDD #PWR0136
U 1 1 5E4C3038
P 9300 9100
F 0 "#PWR0136" H 9300 8850 50  0001 C CNN
F 1 "GNDD" H 9304 8945 50  0000 C CNN
F 2 "" H 9300 9100 50  0001 C CNN
F 3 "" H 9300 9100 50  0001 C CNN
	1    9300 9100
	1    0    0    -1  
$EndComp
$Comp
L Device:L_Small L4
U 1 1 5E4C25A6
P 9650 9000
F 0 "L4" H 9698 9046 50  0000 L CNN
F 1 "1uH" H 9698 8955 50  0000 L CNN
F 2 "Inductor_SMD:L_0805_2012Metric_Pad1.15x1.40mm_HandSolder" H 9650 9000 50  0001 C CNN
F 3 "~" H 9650 9000 50  0001 C CNN
	1    9650 9000
	1    0    0    -1  
$EndComp
$Comp
L Device:L_Small L5
U 1 1 5E4C1DD2
P 9300 9000
F 0 "L5" H 9348 9046 50  0000 L CNN
F 1 "1uH" H 9348 8955 50  0000 L CNN
F 2 "Inductor_SMD:L_0805_2012Metric_Pad1.15x1.40mm_HandSolder" H 9300 9000 50  0001 C CNN
F 3 "~" H 9300 9000 50  0001 C CNN
	1    9300 9000
	1    0    0    -1  
$EndComp
$Comp
L power:+5V #PWR0137
U 1 1 5E4B7466
P 10100 9050
F 0 "#PWR0137" H 10100 8900 50  0001 C CNN
F 1 "+5V" H 10115 9223 50  0000 C CNN
F 2 "" H 10100 9050 50  0001 C CNN
F 3 "" H 10100 9050 50  0001 C CNN
	1    10100 9050
	-1   0    0    1   
$EndComp
$Comp
L power:+5VA #PWR0138
U 1 1 5E4B630F
P 10100 8850
F 0 "#PWR0138" H 10100 8700 50  0001 C CNN
F 1 "+5VA" H 10115 9023 50  0000 C CNN
F 2 "" H 10100 8850 50  0001 C CNN
F 3 "" H 10100 8850 50  0001 C CNN
	1    10100 8850
	1    0    0    -1  
$EndComp
$Comp
L Device:L_Small L2
U 1 1 5E4B516F
P 10100 8950
F 0 "L2" H 10148 8996 50  0000 L CNN
F 1 "1uH" H 10148 8905 50  0000 L CNN
F 2 "Inductor_SMD:L_0805_2012Metric_Pad1.15x1.40mm_HandSolder" H 10100 8950 50  0001 C CNN
F 3 "~" H 10100 8950 50  0001 C CNN
	1    10100 8950
	1    0    0    -1  
$EndComp
$Comp
L power:+3.3VA #PWR0139
U 1 1 5E49E1DD
P 10550 8850
F 0 "#PWR0139" H 10550 8700 50  0001 C CNN
F 1 "+3.3VA" H 10565 9023 50  0000 C CNN
F 2 "" H 10550 8850 50  0001 C CNN
F 3 "" H 10550 8850 50  0001 C CNN
	1    10550 8850
	1    0    0    -1  
$EndComp
$Comp
L Device:L_Small L1
U 1 1 5E48BF96
P 10550 8950
F 0 "L1" H 10598 8996 50  0000 L CNN
F 1 "1uH" H 10700 9000 50  0000 L CNN
F 2 "Inductor_SMD:L_0805_2012Metric_Pad1.15x1.40mm_HandSolder" H 10550 8950 50  0001 C CNN
F 3 "~" H 10550 8950 50  0001 C CNN
	1    10550 8950
	1    0    0    -1  
$EndComp
Wire Notes Line
	1400 9350 11100 9350
Wire Notes Line
	7250 1500 7250 9350
Wire Notes Line
	11100 9350 11100 5800
Wire Notes Line
	11100 5800 9000 5800
Wire Notes Line
	9000 3300 7250 3300
$Comp
L Device:R_Small_US R10
U 1 1 5E7AEE20
P 3350 2200
F 0 "R10" H 3282 2154 50  0000 R CNN
F 1 "390K" H 3282 2245 50  0000 R CNN
F 2 "Resistor_SMD:R_0805_2012Metric_Pad1.15x1.40mm_HandSolder" H 3350 2200 50  0001 C CNN
F 3 "~" H 3350 2200 50  0001 C CNN
	1    3350 2200
	-1   0    0    1   
$EndComp
Wire Wire Line
	3350 2100 3250 2100
Wire Wire Line
	3250 2100 3250 2300
$Comp
L Device:C_Small C30
U 1 1 5E7B49DF
P 3250 2000
F 0 "C30" V 3300 1900 30  0000 C CNN
F 1 "1uf" V 3200 1900 30  0000 C CNN
F 2 "Capacitor_SMD:C_0603_1608Metric_Pad1.05x0.95mm_HandSolder" H 3250 2000 50  0001 C CNN
F 3 "~" H 3250 2000 50  0001 C CNN
	1    3250 2000
	1    0    0    -1  
$EndComp
Connection ~ 3250 2100
$Comp
L power:GNDD #PWR0140
U 1 1 5E7B663C
P 3250 1900
F 0 "#PWR0140" H 3250 1650 50  0001 C CNN
F 1 "GNDD" H 3254 1745 50  0000 C CNN
F 2 "" H 3250 1900 50  0001 C CNN
F 3 "" H 3250 1900 50  0001 C CNN
	1    3250 1900
	-1   0    0    1   
$EndComp
$Comp
L dk_Transistors-FETs-MOSFETs-Single:BSS138 Q3
U 1 1 5E7B93DD
P 8100 8250
F 0 "Q3" H 8208 8197 60  0000 L CNN
F 1 "BSS138" H 8208 8303 60  0000 L CNN
F 2 "Package_TO_SOT_SMD:SOT-23" H 8300 8450 60  0001 L CNN
F 3 "https://www.onsemi.com/pub/Collateral/BSS138-D.PDF" H 8300 8550 60  0001 L CNN
F 4 "BSS138CT-ND" H 8300 8650 60  0001 L CNN "Digi-Key_PN"
F 5 "BSS138" H 8300 8750 60  0001 L CNN "MPN"
F 6 "Discrete Semiconductor Products" H 8300 8850 60  0001 L CNN "Category"
F 7 "Transistors - FETs, MOSFETs - Single" H 8300 8950 60  0001 L CNN "Family"
F 8 "https://www.onsemi.com/pub/Collateral/BSS138-D.PDF" H 8300 9050 60  0001 L CNN "DK_Datasheet_Link"
F 9 "/product-detail/en/on-semiconductor/BSS138/BSS138CT-ND/244294" H 8300 9150 60  0001 L CNN "DK_Detail_Page"
F 10 "MOSFET N-CH 50V 220MA SOT-23" H 8300 9250 60  0001 L CNN "Description"
F 11 "ON Semiconductor" H 8300 9350 60  0001 L CNN "Manufacturer"
F 12 "Active" H 8300 9450 60  0001 L CNN "Status"
	1    8100 8250
	1    0    0    1   
$EndComp
Connection ~ 8100 8450
Wire Wire Line
	8100 8050 8400 8050
Wire Wire Line
	8400 8050 8400 8550
Connection ~ 8100 8050
$Comp
L Device:C_Small C7
U 1 1 5E595F4F
P 7600 8250
F 0 "C7" V 7650 8350 30  0000 C CNN
F 1 "1uf" V 7700 8350 30  0000 C CNN
F 2 "Capacitor_SMD:C_0603_1608Metric_Pad1.05x0.95mm_HandSolder" H 7600 8250 50  0001 C CNN
F 3 "~" H 7600 8250 50  0001 C CNN
	1    7600 8250
	-1   0    0    1   
$EndComp
Text GLabel 7600 8150 0    50   Input ~ 0
TXD0
$Comp
L Device:R_Small_US R6
U 1 1 5E519837
P 7700 8150
F 0 "R6" V 7800 8150 50  0000 C CNN
F 1 "220" V 7900 8150 50  0000 C CNN
F 2 "Resistor_SMD:R_0603_1608Metric_Pad1.05x0.95mm_HandSolder" H 7700 8150 50  0001 C CNN
F 3 "~" H 7700 8150 50  0001 C CNN
	1    7700 8150
	0    1    -1   0   
$EndComp
Wire Wire Line
	7600 8450 7600 8350
$Comp
L Connector:Conn_01x06_Female J7
U 1 1 5E7F2615
P 9950 5250
F 0 "J7" H 9978 5226 50  0000 L CNN
F 1 "Wired Data" H 9978 5135 50  0000 L CNN
F 2 "Connector_JST:JST_PH_S6B-PH-K_1x06_P2.00mm_Horizontal" H 9950 5250 50  0001 C CNN
F 3 "~" H 9950 5250 50  0001 C CNN
	1    9950 5250
	1    0    0    -1  
$EndComp
Text GLabel 9750 5350 0    50   Input ~ 0
3v3GND
Text GLabel 9750 5450 0    50   Input ~ 0
5VGND
$Comp
L power:+3.3VA #PWR0141
U 1 1 5E7FE9C8
P 9750 5050
F 0 "#PWR0141" H 9750 4900 50  0001 C CNN
F 1 "+3.3VA" V 9765 5177 50  0000 L CNN
F 2 "" H 9750 5050 50  0001 C CNN
F 3 "" H 9750 5050 50  0001 C CNN
	1    9750 5050
	0    -1   -1   0   
$EndComp
$Comp
L power:GNDD #PWR0142
U 1 1 5E7FFF50
P 9750 5550
F 0 "#PWR0142" H 9750 5300 50  0001 C CNN
F 1 "GNDD" V 9754 5440 50  0000 R CNN
F 2 "" H 9750 5550 50  0001 C CNN
F 3 "" H 9750 5550 50  0001 C CNN
	1    9750 5550
	0    1    1    0   
$EndComp
$Comp
L power:+5VA #PWR0143
U 1 1 5E800697
P 9750 5150
F 0 "#PWR0143" H 9750 5000 50  0001 C CNN
F 1 "+5VA" V 9765 5277 50  0000 L CNN
F 2 "" H 9750 5150 50  0001 C CNN
F 3 "" H 9750 5150 50  0001 C CNN
	1    9750 5150
	0    -1   -1   0   
$EndComp
Text GLabel 9750 5250 0    50   Input ~ 0
DATA_3V3
Text Notes 10350 4900 2    79   ~ 0
Wired Data Connector
Wire Notes Line
	10550 5800 10550 4700
Wire Notes Line
	1400 4700 10550 4700
Wire Wire Line
	3900 6450 3900 6650
Connection ~ 3900 6450
Wire Wire Line
	3900 6250 3900 6450
Wire Wire Line
	3800 6450 3900 6450
Wire Wire Line
	3600 6400 3600 6250
Wire Wire Line
	3500 6400 3600 6400
Wire Wire Line
	3600 6500 3600 6450
$Comp
L Device:C_Small C19
U 1 1 5DEE42B8
P 3700 6450
F 0 "C19" V 3750 6550 30  0000 C CNN
F 1 ".22uF" V 3650 6550 30  0000 C CNN
F 2 "Capacitor_SMD:C_0603_1608Metric_Pad1.05x0.95mm_HandSolder" H 3700 6450 50  0001 C CNN
F 3 "~" H 3700 6450 50  0001 C CNN
	1    3700 6450
	0    1    1    0   
$EndComp
$Comp
L Device:C_Small C4
U 1 1 5E836D61
P 8050 2500
F 0 "C4" V 8100 2400 30  0000 C CNN
F 1 "1uf" V 8000 2400 30  0000 C CNN
F 2 "Capacitor_SMD:C_0603_1608Metric_Pad1.05x0.95mm_HandSolder" H 8050 2500 50  0001 C CNN
F 3 "~" H 8050 2500 50  0001 C CNN
	1    8050 2500
	0    -1   -1   0   
$EndComp
Wire Wire Line
	8150 2500 8200 2500
$Comp
L Device:C_Small C3
U 1 1 5E836D68
P 8050 2350
F 0 "C3" V 8100 2250 30  0000 C CNN
F 1 "1uf" V 8000 2250 30  0000 C CNN
F 2 "Capacitor_SMD:C_0603_1608Metric_Pad1.05x0.95mm_HandSolder" H 8050 2350 50  0001 C CNN
F 3 "~" H 8050 2350 50  0001 C CNN
	1    8050 2350
	0    -1   -1   0   
$EndComp
Wire Wire Line
	8150 2350 8200 2350
$Comp
L Device:C_Small C2
U 1 1 5E836D6F
P 8050 2200
F 0 "C2" V 8100 2100 30  0000 C CNN
F 1 "1uf" V 8000 2100 30  0000 C CNN
F 2 "Capacitor_SMD:C_0603_1608Metric_Pad1.05x0.95mm_HandSolder" H 8050 2200 50  0001 C CNN
F 3 "~" H 8050 2200 50  0001 C CNN
	1    8050 2200
	0    -1   -1   0   
$EndComp
Wire Wire Line
	8150 2200 8200 2200
$Comp
L Device:C_Small C1
U 1 1 5E836D76
P 8050 2050
F 0 "C1" V 8100 1950 30  0000 C CNN
F 1 "1uf" V 8000 1950 30  0000 C CNN
F 2 "Capacitor_SMD:C_0603_1608Metric_Pad1.05x0.95mm_HandSolder" H 8050 2050 50  0001 C CNN
F 3 "~" H 8050 2050 50  0001 C CNN
	1    8050 2050
	0    -1   -1   0   
$EndComp
Wire Wire Line
	8150 2050 8200 2050
$Comp
L Device:C_Small C6
U 1 1 5E836D7D
P 8050 2800
F 0 "C6" V 8100 2700 30  0000 C CNN
F 1 "1uf" V 8000 2700 30  0000 C CNN
F 2 "Capacitor_SMD:C_0603_1608Metric_Pad1.05x0.95mm_HandSolder" H 8050 2800 50  0001 C CNN
F 3 "~" H 8050 2800 50  0001 C CNN
	1    8050 2800
	0    -1   -1   0   
$EndComp
Wire Wire Line
	8150 2800 8200 2800
$Comp
L Device:C_Small C5
U 1 1 5E836D84
P 8050 2650
F 0 "C5" V 8100 2550 30  0000 C CNN
F 1 "1uf" V 8000 2550 30  0000 C CNN
F 2 "Capacitor_SMD:C_0603_1608Metric_Pad1.05x0.95mm_HandSolder" H 8050 2650 50  0001 C CNN
F 3 "~" H 8050 2650 50  0001 C CNN
	1    8050 2650
	0    -1   -1   0   
$EndComp
Wire Wire Line
	8150 2650 8200 2650
Wire Wire Line
	8200 2050 8200 2200
Connection ~ 8200 2200
Wire Wire Line
	8200 2200 8200 2350
Connection ~ 8200 2350
Wire Wire Line
	8200 2350 8200 2500
Connection ~ 8200 2500
Wire Wire Line
	8200 2500 8200 2650
Connection ~ 8200 2650
Wire Wire Line
	8200 2650 8200 2800
Connection ~ 8200 2800
Wire Wire Line
	8200 2800 8200 2900
$Comp
L power:GNDD #PWR0145
U 1 1 5E836D96
P 8200 2900
F 0 "#PWR0145" H 8200 2650 50  0001 C CNN
F 1 "GNDD" H 8204 2745 50  0000 C CNN
F 2 "" H 8200 2900 50  0001 C CNN
F 3 "" H 8200 2900 50  0001 C CNN
	1    8200 2900
	1    0    0    -1  
$EndComp
Text Notes 8500 1850 2    79   ~ 0
3.3V Bypass
Wire Wire Line
	7950 2050 7950 2200
Connection ~ 7950 2200
Wire Wire Line
	7950 2200 7950 2350
Connection ~ 7950 2350
Wire Wire Line
	7950 2350 7950 2500
Connection ~ 7950 2500
Wire Wire Line
	7950 2500 7950 2650
Connection ~ 7950 2650
Wire Wire Line
	7950 2650 7950 2800
Wire Wire Line
	7950 2800 7950 2900
Connection ~ 7950 2800
$Comp
L power:+3V3 #PWR0146
U 1 1 5E84F4F5
P 7950 2900
F 0 "#PWR0146" H 7950 2750 50  0001 C CNN
F 1 "+3V3" H 7965 3073 50  0000 C CNN
F 2 "" H 7950 2900 50  0001 C CNN
F 3 "" H 7950 2900 50  0001 C CNN
	1    7950 2900
	-1   0    0    1   
$EndComp
$Comp
L power:+3V3 #PWR0147
U 1 1 5E86D2F3
P 8600 8550
F 0 "#PWR0147" H 8600 8400 50  0001 C CNN
F 1 "+3V3" V 8615 8678 50  0000 L CNN
F 2 "" H 8600 8550 50  0001 C CNN
F 3 "" H 8600 8550 50  0001 C CNN
	1    8600 8550
	0    1    1    0   
$EndComp
$Comp
L power:+3V3 #PWR0148
U 1 1 5E89BA1C
P 10550 9050
F 0 "#PWR0148" H 10550 8900 50  0001 C CNN
F 1 "+3V3" H 10565 9223 50  0000 C CNN
F 2 "" H 10550 9050 50  0001 C CNN
F 3 "" H 10550 9050 50  0001 C CNN
	1    10550 9050
	-1   0    0    1   
$EndComp
Connection ~ 10550 9050
Wire Notes Line
	1400 1500 9000 1500
Wire Notes Line
	9000 1500 9000 9350
NoConn ~ 10300 8050
$EndSCHEMATC
