G04 #@! TF.GenerationSoftware,KiCad,Pcbnew,(5.1.5-0-10_14)*
G04 #@! TF.CreationDate,2019-12-24T14:19:35-05:00*
G04 #@! TF.ProjectId,procon_gcc_main_pcb,70726f63-6f6e-45f6-9763-635f6d61696e,rev?*
G04 #@! TF.SameCoordinates,Original*
G04 #@! TF.FileFunction,Copper,L2,Bot*
G04 #@! TF.FilePolarity,Positive*
%FSLAX46Y46*%
G04 Gerber Fmt 4.6, Leading zero omitted, Abs format (unit mm)*
G04 Created by KiCad (PCBNEW (5.1.5-0-10_14)) date 2019-12-24 14:19:35*
%MOMM*%
%LPD*%
G04 APERTURE LIST*
%ADD10C,1.600000*%
%ADD11R,1.600000X1.600000*%
%ADD12O,0.900000X1.700000*%
%ADD13O,0.900000X2.400000*%
%ADD14C,0.650000*%
%ADD15O,2.500000X3.500000*%
%ADD16O,1.750000X2.250000*%
%ADD17O,2.250000X1.750000*%
%ADD18R,1.100000X1.500000*%
%ADD19R,1.500000X1.100000*%
%ADD20R,1.500000X0.500000*%
%ADD21R,1.500000X2.000000*%
%ADD22O,1.200000X1.750000*%
%ADD23C,0.100000*%
%ADD24C,1.998980*%
%ADD25R,1.998980X1.998980*%
%ADD26C,0.800000*%
%ADD27C,0.250000*%
%ADD28C,0.400000*%
G04 APERTURE END LIST*
D10*
X130016000Y-102108000D03*
D11*
X128016000Y-102108000D03*
D12*
X134294000Y-93174000D03*
X142944000Y-93174000D03*
D13*
X134294000Y-96554000D03*
X142944000Y-96554000D03*
D14*
X135644000Y-96184000D03*
X136494000Y-96184000D03*
X137344000Y-96184000D03*
X138194000Y-96184000D03*
X139044000Y-96184000D03*
X139894000Y-96184000D03*
X140744000Y-96184000D03*
X141594000Y-96184000D03*
X135644000Y-97534000D03*
X136494000Y-97534000D03*
X137344000Y-97534000D03*
X138194000Y-97534000D03*
X139044000Y-97534000D03*
X139894000Y-97534000D03*
X140744000Y-97534000D03*
X141594000Y-97534000D03*
D15*
X89890001Y-113344999D03*
X102930001Y-113344999D03*
X89890001Y-124269999D03*
X102930001Y-124269999D03*
D16*
X93870001Y-127809999D03*
X96410001Y-127809999D03*
X98950001Y-127809999D03*
D17*
X105410000Y-116270000D03*
X105410000Y-118810000D03*
X105410000Y-121350000D03*
D15*
X152130000Y-134150000D03*
X165170000Y-134150000D03*
X152130000Y-145075000D03*
X165170000Y-145075000D03*
D16*
X156110000Y-148615000D03*
X158650000Y-148615000D03*
X161190000Y-148615000D03*
D17*
X167649999Y-137075001D03*
X167649999Y-139615001D03*
X167649999Y-142155001D03*
D18*
X126238000Y-123059999D03*
X123698000Y-123059999D03*
X121158000Y-123059999D03*
X118618000Y-123059999D03*
X118618000Y-131960001D03*
X121158000Y-131960001D03*
X123698000Y-131960001D03*
X126238000Y-131960001D03*
X144272000Y-123059999D03*
X141732000Y-123059999D03*
X139192000Y-123059999D03*
X136652000Y-123059999D03*
X136652000Y-131960001D03*
X139192000Y-131960001D03*
X141732000Y-131960001D03*
X144272000Y-131960001D03*
D19*
X124338001Y-117602000D03*
X124338001Y-115062000D03*
X124338001Y-112522000D03*
X124338001Y-109982000D03*
X115437999Y-109982000D03*
X115437999Y-112522000D03*
X115437999Y-115062000D03*
X115437999Y-117602000D03*
X145155999Y-109982000D03*
X145155999Y-112522000D03*
X145155999Y-115062000D03*
X145155999Y-117602000D03*
X154056001Y-117602000D03*
X154056001Y-115062000D03*
X154056001Y-112522000D03*
X154056001Y-109982000D03*
D20*
X132620000Y-118364000D03*
X132620000Y-117064000D03*
X132620000Y-115764000D03*
D21*
X128120000Y-117064000D03*
D20*
X132588000Y-113060000D03*
X132588000Y-111760000D03*
X132588000Y-110460000D03*
D21*
X128088000Y-111760000D03*
D20*
X136978000Y-115794000D03*
X136978000Y-117094000D03*
X136978000Y-118394000D03*
D21*
X141478000Y-117094000D03*
D20*
X136978000Y-110460000D03*
X136978000Y-111760000D03*
X136978000Y-113060000D03*
D21*
X141478000Y-111760000D03*
D22*
X130550000Y-120650000D03*
X132550000Y-120650000D03*
X134550000Y-120650000D03*
X136550000Y-120650000D03*
X138550000Y-120650000D03*
G04 #@! TA.AperFunction,ComponentPad*
D23*
G36*
X140924505Y-119776204D02*
G01*
X140948773Y-119779804D01*
X140972572Y-119785765D01*
X140995671Y-119794030D01*
X141017850Y-119804520D01*
X141038893Y-119817132D01*
X141058599Y-119831747D01*
X141076777Y-119848223D01*
X141093253Y-119866401D01*
X141107868Y-119886107D01*
X141120480Y-119907150D01*
X141130970Y-119929329D01*
X141139235Y-119952428D01*
X141145196Y-119976227D01*
X141148796Y-120000495D01*
X141150000Y-120024999D01*
X141150000Y-121275001D01*
X141148796Y-121299505D01*
X141145196Y-121323773D01*
X141139235Y-121347572D01*
X141130970Y-121370671D01*
X141120480Y-121392850D01*
X141107868Y-121413893D01*
X141093253Y-121433599D01*
X141076777Y-121451777D01*
X141058599Y-121468253D01*
X141038893Y-121482868D01*
X141017850Y-121495480D01*
X140995671Y-121505970D01*
X140972572Y-121514235D01*
X140948773Y-121520196D01*
X140924505Y-121523796D01*
X140900001Y-121525000D01*
X140199999Y-121525000D01*
X140175495Y-121523796D01*
X140151227Y-121520196D01*
X140127428Y-121514235D01*
X140104329Y-121505970D01*
X140082150Y-121495480D01*
X140061107Y-121482868D01*
X140041401Y-121468253D01*
X140023223Y-121451777D01*
X140006747Y-121433599D01*
X139992132Y-121413893D01*
X139979520Y-121392850D01*
X139969030Y-121370671D01*
X139960765Y-121347572D01*
X139954804Y-121323773D01*
X139951204Y-121299505D01*
X139950000Y-121275001D01*
X139950000Y-120024999D01*
X139951204Y-120000495D01*
X139954804Y-119976227D01*
X139960765Y-119952428D01*
X139969030Y-119929329D01*
X139979520Y-119907150D01*
X139992132Y-119886107D01*
X140006747Y-119866401D01*
X140023223Y-119848223D01*
X140041401Y-119831747D01*
X140061107Y-119817132D01*
X140082150Y-119804520D01*
X140104329Y-119794030D01*
X140127428Y-119785765D01*
X140151227Y-119779804D01*
X140175495Y-119776204D01*
X140199999Y-119775000D01*
X140900001Y-119775000D01*
X140924505Y-119776204D01*
G37*
G04 #@! TD.AperFunction*
D24*
X179324000Y-143002000D03*
D25*
X183134000Y-143002000D03*
D24*
X89408000Y-138684000D03*
D25*
X85598000Y-138684000D03*
D26*
X133096000Y-102616000D03*
X117441021Y-124968000D03*
X114526000Y-125476000D03*
X116899693Y-139539173D03*
X120142000Y-135636010D03*
X131572000Y-99568000D03*
X128406258Y-142604718D03*
X133604000Y-128016000D03*
X133604000Y-131459000D03*
X133096000Y-146812000D03*
X137704315Y-148807685D03*
X135382000Y-148590000D03*
X118364006Y-140556979D03*
X114512827Y-140556979D03*
X147719000Y-149444000D03*
X149924291Y-148824707D03*
X128367565Y-121197235D03*
X114794000Y-121619000D03*
X141369000Y-106419000D03*
X142619000Y-104219000D03*
X141455218Y-94558988D03*
X118872000Y-134366000D03*
X131318004Y-101346000D03*
X134329914Y-101817914D03*
X131757133Y-141597104D03*
X117371720Y-129277313D03*
X121412014Y-135382000D03*
X119761630Y-138032328D03*
X132996706Y-148435294D03*
X134975032Y-149847935D03*
X136652000Y-150314337D03*
X150069000Y-150194000D03*
X116169000Y-126994000D03*
X169051000Y-135128000D03*
X121209825Y-138394059D03*
X141325017Y-109259978D03*
X136906000Y-111760000D03*
X130810008Y-122936000D03*
X136652014Y-117094000D03*
X134264968Y-116021582D03*
X144352016Y-131999990D03*
X136732010Y-129068990D03*
X161194000Y-140944002D03*
X150719000Y-131144000D03*
X122682000Y-125730000D03*
X126238000Y-131960001D03*
X132588000Y-111760000D03*
X129979135Y-128709135D03*
X144272000Y-123444000D03*
X141732000Y-123444000D03*
X139192000Y-123444000D03*
X136652000Y-123444000D03*
X145034000Y-109982000D03*
X145034000Y-112522000D03*
X145034000Y-115062000D03*
X145034000Y-117602000D03*
X124460000Y-117602000D03*
X124460000Y-115062000D03*
X124460000Y-112522000D03*
X124460000Y-109982000D03*
X126238000Y-123190000D03*
X123698000Y-123190000D03*
X121158000Y-123190000D03*
X118618000Y-123190000D03*
X141224000Y-136906000D03*
X148844000Y-143764000D03*
X144526000Y-144018008D03*
X146812000Y-146304000D03*
X147617686Y-144482314D03*
X140716000Y-100584000D03*
X143047421Y-109363299D03*
X138176000Y-100584000D03*
X139544272Y-108623794D03*
X135870009Y-100761327D03*
X134681297Y-113843978D03*
X138430000Y-94558990D03*
X123849691Y-140349188D03*
X104345171Y-143802001D03*
X125984000Y-144018000D03*
X112012635Y-142746635D03*
X124849663Y-140340270D03*
X102869998Y-144514315D03*
X127762000Y-143509978D03*
X101976651Y-144964326D03*
X100967969Y-145114326D03*
X127144000Y-119469000D03*
X110793331Y-130642146D03*
X102441753Y-139170927D03*
X139852130Y-135082219D03*
X125044000Y-119194000D03*
X108893990Y-131519000D03*
X101442105Y-139143949D03*
X130751902Y-140413221D03*
X130307069Y-149640934D03*
X115570001Y-137922000D03*
X100208649Y-140924208D03*
X99215939Y-140803588D03*
X118744000Y-136644000D03*
X97930204Y-139087455D03*
X117944000Y-127369000D03*
X97790000Y-141986000D03*
X123952000Y-135382000D03*
X140732265Y-102599735D03*
X132016882Y-113032771D03*
X131920979Y-114482783D03*
X130989640Y-118437031D03*
X135269000Y-105844000D03*
X133544000Y-105669000D03*
X137450990Y-107376707D03*
X128168994Y-105694000D03*
X123509979Y-137940428D03*
X129429187Y-149162033D03*
X127254000Y-137706000D03*
X125730000Y-133604000D03*
X137811277Y-146447287D03*
X122236966Y-132993213D03*
X121459954Y-137425834D03*
X135051989Y-123200328D03*
X138938000Y-115824000D03*
X136978000Y-115794000D03*
X127000000Y-134366000D03*
X139499729Y-134146358D03*
X129032000Y-134488344D03*
X121892416Y-133931987D03*
X143819000Y-137244000D03*
X137922000Y-130519000D03*
X124050876Y-129881767D03*
D27*
X115034000Y-124968000D02*
X114526000Y-125476000D01*
X117441021Y-124968000D02*
X115034000Y-124968000D01*
X133604000Y-128016000D02*
X133604000Y-131459000D01*
D28*
X135382000Y-148590000D02*
X134874000Y-148590000D01*
X134874000Y-148590000D02*
X133096000Y-146812000D01*
D27*
X122568898Y-140556979D02*
X118364006Y-140556979D01*
X125416809Y-139615269D02*
X123510608Y-139615269D01*
X116899693Y-139539173D02*
X115881887Y-140556979D01*
X128406258Y-142604718D02*
X125416809Y-139615269D01*
X115881887Y-140556979D02*
X114512827Y-140556979D01*
X123510608Y-139615269D02*
X122568898Y-140556979D01*
D28*
X138340630Y-149444000D02*
X147719000Y-149444000D01*
X137704315Y-148807685D02*
X138340630Y-149444000D01*
X147719000Y-149444000D02*
X149304998Y-149444000D01*
X149304998Y-149444000D02*
X149924291Y-148824707D01*
X128914800Y-120650000D02*
X128367565Y-121197235D01*
X130550000Y-120650000D02*
X128914800Y-120650000D01*
D27*
X117441021Y-124266021D02*
X114794000Y-121619000D01*
X117441021Y-124968000D02*
X117441021Y-124266021D01*
D28*
X141369000Y-105469000D02*
X142619000Y-104219000D01*
X141369000Y-106419000D02*
X141369000Y-105469000D01*
X130524000Y-102616000D02*
X133096000Y-102616000D01*
X130016000Y-102108000D02*
X130524000Y-102616000D01*
X130016000Y-101124000D02*
X131572000Y-99568000D01*
X130016000Y-102108000D02*
X130016000Y-101124000D01*
X134294000Y-98154000D02*
X134294000Y-96554000D01*
X132880000Y-99568000D02*
X134294000Y-98154000D01*
X131572000Y-99568000D02*
X132880000Y-99568000D01*
X134294000Y-96554000D02*
X134294000Y-93174000D01*
X142944000Y-96047770D02*
X141455218Y-94558988D01*
X142944000Y-96554000D02*
X142944000Y-96047770D01*
X131318004Y-101346000D02*
X133858000Y-101346000D01*
X133858000Y-101346000D02*
X134329914Y-101817914D01*
D27*
X117371720Y-132865720D02*
X117371720Y-129277313D01*
X118872000Y-134366000D02*
X117371720Y-132865720D01*
D28*
X131757133Y-141597104D02*
X131191448Y-141597104D01*
X131191448Y-141597104D02*
X130256216Y-142532336D01*
D27*
X120225625Y-137632329D02*
X120161629Y-137632329D01*
X120161629Y-137632329D02*
X119761630Y-138032328D01*
X121412014Y-135382000D02*
X121412014Y-136445940D01*
X121412014Y-136445940D02*
X120225625Y-137632329D01*
D28*
X130256216Y-142532336D02*
X130256216Y-145587784D01*
D27*
X130306287Y-145637855D02*
X130306287Y-145800287D01*
X130306287Y-145800287D02*
X132080000Y-147574000D01*
X130256216Y-145587784D02*
X130306287Y-145637855D01*
D28*
X132996706Y-148435294D02*
X134409347Y-149847935D01*
X134409347Y-149847935D02*
X134975032Y-149847935D01*
X130256216Y-145694804D02*
X132996706Y-148435294D01*
X130256216Y-145587784D02*
X130256216Y-145694804D01*
X149948663Y-150314337D02*
X150069000Y-150194000D01*
X136652000Y-150314337D02*
X149948663Y-150314337D01*
X99766000Y-126994000D02*
X98950001Y-127809999D01*
X116169000Y-126994000D02*
X99766000Y-126994000D01*
X105394000Y-121366000D02*
X105410000Y-121350000D01*
X103419000Y-126994000D02*
X105394000Y-125019000D01*
X105394000Y-125019000D02*
X105394000Y-121366000D01*
X99766000Y-126994000D02*
X103419000Y-126994000D01*
X167649999Y-145428467D02*
X167649999Y-142155001D01*
X164463466Y-148615000D02*
X167649999Y-145428467D01*
X161190000Y-148615000D02*
X164463466Y-148615000D01*
X169450167Y-135527167D02*
X169051000Y-135128000D01*
X169450167Y-140354833D02*
X169450167Y-135527167D01*
X167644000Y-142161000D02*
X169450167Y-140354833D01*
X167644000Y-144919000D02*
X167644000Y-142161000D01*
D27*
X135791018Y-109869000D02*
X139761176Y-109869000D01*
X139761176Y-109869000D02*
X140095199Y-109534977D01*
X135439989Y-110220029D02*
X135791018Y-109869000D01*
X135967999Y-118969001D02*
X135439989Y-118440991D01*
X137216591Y-118969001D02*
X135967999Y-118969001D01*
X137527001Y-122049998D02*
X137527001Y-119279411D01*
X137462001Y-121984998D02*
X137527001Y-122049998D01*
X135841999Y-121984998D02*
X137462001Y-121984998D01*
X135776999Y-122049998D02*
X135841999Y-121984998D01*
X128306999Y-134768416D02*
X128306999Y-134140343D01*
X131862999Y-128487001D02*
X131862999Y-128114000D01*
X128683999Y-131666001D02*
X131862999Y-128487001D01*
X126965435Y-136109980D02*
X128306999Y-134768416D01*
X122977884Y-136557013D02*
X124486402Y-136557013D01*
X122184958Y-137349939D02*
X122977884Y-136557013D01*
X121209825Y-138394059D02*
X121520282Y-138394059D01*
X124486402Y-136557013D02*
X124933435Y-136109980D01*
X128683999Y-133763343D02*
X128683999Y-131666001D01*
X135776999Y-124070000D02*
X135776999Y-122049998D01*
X131862999Y-128114000D02*
X135841999Y-124135000D01*
X128306999Y-134140343D02*
X128683999Y-133763343D01*
X124933435Y-136109980D02*
X126965435Y-136109980D01*
X140095199Y-109534977D02*
X141271698Y-109534977D01*
X141271698Y-109534977D02*
X141437673Y-109369002D01*
X135439989Y-118440991D02*
X135439989Y-110220029D01*
X121520282Y-138394059D02*
X122184958Y-137729383D01*
X137527001Y-119279411D02*
X137216591Y-118969001D01*
X135841999Y-124135000D02*
X135776999Y-124070000D01*
X122184958Y-137729383D02*
X122184958Y-137349939D01*
X135890000Y-116331986D02*
X136652014Y-117094000D01*
X136340315Y-111760000D02*
X135890000Y-112210315D01*
X135890000Y-112210315D02*
X135890000Y-116331986D01*
X136906000Y-111760000D02*
X136340315Y-111760000D01*
X133864969Y-116421581D02*
X134264968Y-116021582D01*
X131475010Y-119965973D02*
X130264639Y-118755602D01*
X130264639Y-117896181D02*
X131739239Y-116421581D01*
X131475010Y-122270998D02*
X131475010Y-119965973D01*
X130264639Y-118755602D02*
X130264639Y-117896181D01*
X130810008Y-122936000D02*
X131475010Y-122270998D01*
X131739239Y-116421581D02*
X133864969Y-116421581D01*
X136652000Y-131960001D02*
X144312027Y-131960001D01*
X144312027Y-131960001D02*
X144352016Y-131999990D01*
X136652000Y-129149000D02*
X136732010Y-129068990D01*
X136652000Y-131960001D02*
X136652000Y-129149000D01*
X167649999Y-139615001D02*
X166274999Y-139615001D01*
X161593999Y-141344001D02*
X161194000Y-140944002D01*
X164545999Y-141344001D02*
X161593999Y-141344001D01*
X166274999Y-139615001D02*
X164545999Y-141344001D01*
X154056001Y-117602000D02*
X154056001Y-115062000D01*
X154056001Y-115062000D02*
X154056001Y-112522000D01*
X154056001Y-109982000D02*
X154056001Y-112522000D01*
X154056001Y-117602000D02*
X154056001Y-127806999D01*
X154056001Y-127806999D02*
X150719000Y-131144000D01*
X150169001Y-131693999D02*
X150719000Y-131144000D01*
X150169001Y-140134001D02*
X150169001Y-131693999D01*
X158650000Y-148615000D02*
X150169001Y-140134001D01*
X115437999Y-117602000D02*
X115437999Y-109982000D01*
X118709998Y-121984998D02*
X115437999Y-118712999D01*
X119428001Y-121984998D02*
X118709998Y-121984998D01*
X115437999Y-118712999D02*
X115437999Y-117602000D01*
X119493001Y-123174591D02*
X119493001Y-122049998D01*
X122048410Y-125730000D02*
X119493001Y-123174591D01*
X119493001Y-122049998D02*
X119428001Y-121984998D01*
X122682000Y-125730000D02*
X122048410Y-125730000D01*
X105601000Y-118619000D02*
X105410000Y-118810000D01*
X107844000Y-118619000D02*
X105601000Y-118619000D01*
X115394000Y-118619000D02*
X105601000Y-118619000D01*
X115437999Y-118575001D02*
X115394000Y-118619000D01*
X126238000Y-131960001D02*
X118618000Y-131960001D01*
X116387687Y-127827311D02*
X114174279Y-127827311D01*
X123516474Y-131816474D02*
X123516474Y-131056780D01*
X123669000Y-131969000D02*
X123516474Y-131816474D01*
X97069035Y-129844033D02*
X96410001Y-129184999D01*
X112157557Y-129844033D02*
X97069035Y-129844033D01*
X123516474Y-131056780D02*
X119053693Y-126593999D01*
X114174279Y-127827311D02*
X112157557Y-129844033D01*
X117620999Y-126593999D02*
X116387687Y-127827311D01*
X119053693Y-126593999D02*
X117620999Y-126593999D01*
X96410001Y-129184999D02*
X96410001Y-127809999D01*
X134613626Y-117064000D02*
X132620000Y-117064000D01*
X133588000Y-111760000D02*
X132588000Y-111760000D01*
X134989978Y-116687648D02*
X134989978Y-115192974D01*
X134989978Y-115192974D02*
X133695001Y-113897997D01*
X133695001Y-111867001D02*
X133588000Y-111760000D01*
X133695001Y-113897997D02*
X133695001Y-111867001D01*
X134613626Y-117064000D02*
X134989978Y-116687648D01*
X134933151Y-119449990D02*
X135475010Y-119991849D01*
X133695001Y-117139001D02*
X133695001Y-118874001D01*
X133695001Y-118874001D02*
X134270990Y-119449990D01*
X134270990Y-119449990D02*
X134933151Y-119449990D01*
X135475010Y-121308151D02*
X129979135Y-126804026D01*
X129979135Y-126804026D02*
X129979135Y-128709135D01*
X133620000Y-117064000D02*
X133695001Y-117139001D01*
X135475010Y-119991849D02*
X135475010Y-121308151D01*
D28*
X124879892Y-136906000D02*
X141224000Y-136906000D01*
X123195351Y-137082024D02*
X124703868Y-137082024D01*
X122709969Y-137567406D02*
X123195351Y-137082024D01*
X122709969Y-138084188D02*
X122709969Y-137567406D01*
X116608486Y-138698994D02*
X117229735Y-138698994D01*
X113195100Y-139426012D02*
X115881468Y-139426012D01*
X111864134Y-140756978D02*
X113195100Y-139426012D01*
X121600088Y-139194069D02*
X122709969Y-138084188D01*
X109120979Y-143002000D02*
X111366001Y-140756978D01*
X91948000Y-138684000D02*
X96266000Y-143002000D01*
X111366001Y-140756978D02*
X111864134Y-140756978D01*
X117229735Y-138698994D02*
X117724810Y-139194069D01*
X124703868Y-137082024D02*
X124879892Y-136906000D01*
X96266000Y-143002000D02*
X109120979Y-143002000D01*
X117724810Y-139194069D02*
X121600088Y-139194069D01*
X115881468Y-139426012D02*
X116608486Y-138698994D01*
X89408000Y-138684000D02*
X91948000Y-138684000D01*
X148844000Y-143764000D02*
X148444001Y-143364001D01*
X148444001Y-143364001D02*
X145180007Y-143364001D01*
X145180007Y-143364001D02*
X144526000Y-144018008D01*
X146812000Y-145288000D02*
X147617686Y-144482314D01*
X146812000Y-146304000D02*
X146812000Y-145288000D01*
D27*
X139954000Y-106269878D02*
X143047421Y-109363299D01*
X139954000Y-100646000D02*
X139954000Y-106269878D01*
X140016000Y-100584000D02*
X139954000Y-100646000D01*
X140716000Y-100584000D02*
X140016000Y-100584000D01*
X136494000Y-95431986D02*
X136494000Y-96184000D01*
X143764000Y-101600000D02*
X143844000Y-101520000D01*
X143844000Y-101520000D02*
X143844000Y-95607971D01*
X142748000Y-101600000D02*
X143764000Y-101600000D01*
X143844000Y-95607971D02*
X142070017Y-93833988D01*
X140744000Y-99596000D02*
X142748000Y-101600000D01*
X138091998Y-93833988D02*
X136494000Y-95431986D01*
X142070017Y-93833988D02*
X138091998Y-93833988D01*
X140744000Y-97534000D02*
X140744000Y-99596000D01*
X138176000Y-100584000D02*
X138176000Y-107255522D01*
X138176000Y-107255522D02*
X139544272Y-108623794D01*
X140744000Y-96434000D02*
X140744000Y-96184000D01*
X137064000Y-96844000D02*
X140334000Y-96844000D01*
X137031999Y-96876001D02*
X137064000Y-96844000D01*
X140334000Y-96844000D02*
X140744000Y-96434000D01*
X136496000Y-97536000D02*
X136693999Y-97536000D01*
X137031999Y-96883999D02*
X137031999Y-96876001D01*
X136693999Y-97221999D02*
X137031999Y-96883999D01*
X136693999Y-97536000D02*
X136693999Y-97221999D01*
X136494000Y-97534000D02*
X136496000Y-97536000D01*
X134681297Y-113278293D02*
X134681297Y-113843978D01*
X135870009Y-101939581D02*
X134394552Y-103415038D01*
X134394552Y-103415038D02*
X134394552Y-112991548D01*
X135870009Y-100761327D02*
X135870009Y-101939581D01*
X134394552Y-112991548D02*
X134681297Y-113278293D01*
X140080992Y-94558990D02*
X138430000Y-94558990D01*
X141594000Y-96071998D02*
X140080992Y-94558990D01*
X141594000Y-96184000D02*
X141594000Y-96071998D01*
X109063455Y-143802001D02*
X104345171Y-143802001D01*
X123849691Y-140349188D02*
X122916890Y-141281989D01*
X122916890Y-141281989D02*
X111583467Y-141281989D01*
X111583467Y-141281989D02*
X109063455Y-143802001D01*
X112472685Y-142289315D02*
X112014000Y-142748000D01*
X120886297Y-144722010D02*
X118453602Y-142289315D01*
X125279990Y-144722010D02*
X120886297Y-144722010D01*
X118453602Y-142289315D02*
X112472685Y-142289315D01*
X125984000Y-144018000D02*
X125279990Y-144722010D01*
X112014000Y-142748000D02*
X112012635Y-142746635D01*
X103448371Y-144527003D02*
X103435683Y-144514315D01*
X120396000Y-141986000D02*
X120142000Y-141732000D01*
X111769867Y-141732000D02*
X108974864Y-144527003D01*
X103435683Y-144514315D02*
X102869998Y-144514315D01*
X124842409Y-141986000D02*
X120396000Y-141986000D01*
X124849663Y-140340270D02*
X124849663Y-141978746D01*
X120142000Y-141732000D02*
X111769867Y-141732000D01*
X124849663Y-141978746D02*
X124842409Y-141986000D01*
X108974864Y-144527003D02*
X103448371Y-144527003D01*
X120767203Y-145239325D02*
X118267202Y-142739325D01*
X118267202Y-142739325D02*
X113045250Y-142739325D01*
X110545250Y-145239325D02*
X102251650Y-145239325D01*
X126032653Y-145239325D02*
X120767203Y-145239325D01*
X102251650Y-145239325D02*
X101976651Y-144964326D01*
X127762000Y-143509978D02*
X126032653Y-145239325D01*
X113045250Y-142739325D02*
X110545250Y-145239325D01*
X118080802Y-143189336D02*
X113231650Y-143189336D01*
X128681247Y-146289781D02*
X128080802Y-145689336D01*
X135700033Y-150360992D02*
X135471689Y-150589336D01*
X101542979Y-145689336D02*
X100967969Y-145114326D01*
X140478000Y-117094000D02*
X140402999Y-117018999D01*
X146013001Y-122279588D02*
X146013001Y-133640999D01*
X128681247Y-149589714D02*
X128681247Y-146289781D01*
X141478000Y-117094000D02*
X140478000Y-117094000D01*
X146013001Y-133640999D02*
X140462000Y-139192000D01*
X140467999Y-110434999D02*
X142400584Y-110434999D01*
X140402999Y-110499999D02*
X140467999Y-110434999D01*
X140462000Y-139192000D02*
X140462000Y-144964338D01*
X128080802Y-145689336D02*
X120580803Y-145689336D01*
X140462000Y-144964338D02*
X135700033Y-149726305D01*
X135700033Y-149726305D02*
X135700033Y-150360992D01*
X113231650Y-143189336D02*
X110731650Y-145689336D01*
X110731650Y-145689336D02*
X101542979Y-145689336D01*
X135471689Y-150589336D02*
X129680869Y-150589336D01*
X140402999Y-117018999D02*
X140402999Y-110499999D01*
X142400584Y-110434999D02*
X143960010Y-111994425D01*
X143960010Y-111994425D02*
X143960010Y-120226597D01*
X143960010Y-120226597D02*
X146013001Y-122279588D01*
X120580803Y-145689336D02*
X118080802Y-143189336D01*
X129680869Y-150589336D02*
X128681247Y-149589714D01*
X128120000Y-118493000D02*
X127144000Y-119469000D01*
X128120000Y-117064000D02*
X128120000Y-118493000D01*
X110793331Y-131207831D02*
X102830235Y-139170927D01*
X110793331Y-130642146D02*
X110793331Y-131207831D01*
X102830235Y-139170927D02*
X102441753Y-139170927D01*
X143105466Y-135082219D02*
X139852130Y-135082219D01*
X145175335Y-133012350D02*
X143105466Y-135082219D01*
X143510000Y-112792000D02*
X143510000Y-120412997D01*
X145175335Y-122078332D02*
X145175335Y-133012350D01*
X142478000Y-111760000D02*
X143510000Y-112792000D01*
X141478000Y-111760000D02*
X142478000Y-111760000D01*
X143510000Y-120412997D02*
X145175335Y-122078332D01*
X126319000Y-117919000D02*
X125044000Y-119194000D01*
X127088000Y-111760000D02*
X126319000Y-112529000D01*
X126319000Y-112529000D02*
X126319000Y-117919000D01*
X128088000Y-111760000D02*
X127088000Y-111760000D01*
X101442105Y-138970885D02*
X101442105Y-139143949D01*
X108893990Y-131519000D02*
X101442105Y-138970885D01*
X130307069Y-148819300D02*
X130307069Y-149640934D01*
X130751902Y-140413221D02*
X129581269Y-141583854D01*
X129581269Y-148093500D02*
X130307069Y-148819300D01*
X129581269Y-141583854D02*
X129581269Y-148093500D01*
X100278464Y-140994023D02*
X100208649Y-140924208D01*
X110889854Y-139847771D02*
X109743602Y-140994023D01*
X111460268Y-139781956D02*
X111068116Y-139781956D01*
X113320224Y-137922000D02*
X111460268Y-139781956D01*
X111068116Y-139781956D02*
X110889854Y-139847771D01*
X109743602Y-140994023D02*
X100278464Y-140994023D01*
X115570001Y-137922000D02*
X113320224Y-137922000D01*
X113231634Y-138647001D02*
X115890999Y-138647001D01*
X115890999Y-138647001D02*
X117894000Y-136644000D01*
X111646668Y-140231967D02*
X113231634Y-138647001D01*
X111148535Y-140231967D02*
X111646668Y-140231967D01*
X117894000Y-136644000D02*
X118744000Y-136644000D01*
X109731292Y-141649210D02*
X111148535Y-140231967D01*
X99495876Y-141649210D02*
X109731292Y-141649210D01*
X99215939Y-140803588D02*
X99215939Y-141369273D01*
X99215939Y-141369273D02*
X99495876Y-141649210D01*
X117019001Y-128293999D02*
X117944000Y-127369000D01*
X101095999Y-140094001D02*
X102543999Y-140094001D01*
X114344001Y-128293999D02*
X117019001Y-128293999D01*
X97930204Y-139087455D02*
X100089453Y-139087455D01*
X100089453Y-139087455D02*
X101095999Y-140094001D01*
X102543999Y-140094001D02*
X114344001Y-128293999D01*
X122993003Y-135382000D02*
X123952000Y-135382000D01*
X122268002Y-134656999D02*
X122993003Y-135382000D01*
X97790000Y-141986000D02*
X97790000Y-141198000D01*
X102963277Y-140544012D02*
X109028635Y-134478654D01*
X109028635Y-134478654D02*
X117853266Y-134478654D01*
X119243609Y-135332295D02*
X119918905Y-134656999D01*
X118706907Y-135332295D02*
X119243609Y-135332295D01*
X100909599Y-140544012D02*
X102963277Y-140544012D01*
X119918905Y-134656999D02*
X122268002Y-134656999D01*
X117853266Y-134478654D02*
X118706907Y-135332295D01*
X100434600Y-140069013D02*
X100909599Y-140544012D01*
X97790000Y-141198000D02*
X98918987Y-140069013D01*
X98918987Y-140069013D02*
X100434600Y-140069013D01*
D28*
X85598000Y-140083490D02*
X85598000Y-138684000D01*
X93163336Y-140914347D02*
X86428857Y-140914347D01*
X93456236Y-142732236D02*
X93456236Y-141207247D01*
X95504000Y-144780000D02*
X93456236Y-142732236D01*
X117863336Y-143714347D02*
X113449116Y-143714347D01*
X113449116Y-143714347D02*
X110949116Y-146214347D01*
X99487203Y-144780000D02*
X95504000Y-144780000D01*
X86428857Y-140914347D02*
X85598000Y-140083490D01*
X100921550Y-146214347D02*
X99487203Y-144780000D01*
X93456236Y-141207247D02*
X93163336Y-140914347D01*
X110949116Y-146214347D02*
X100921550Y-146214347D01*
X128156236Y-149807180D02*
X128156236Y-146507247D01*
X127863336Y-146214347D02*
X120363337Y-146214347D01*
X128156236Y-146507247D02*
X127863336Y-146214347D01*
X120363337Y-146214347D02*
X117863336Y-143714347D01*
X129463403Y-151114347D02*
X128156236Y-149807180D01*
X150373653Y-151114347D02*
X129463403Y-151114347D01*
X142406470Y-102599735D02*
X140732265Y-102599735D01*
X149644001Y-109837266D02*
X142406470Y-102599735D01*
X149644001Y-147360415D02*
X149644001Y-109837266D01*
X150869001Y-148585415D02*
X149644001Y-147360415D01*
X150869001Y-150918999D02*
X150869001Y-148585415D01*
X150673653Y-151114347D02*
X150869001Y-150918999D01*
X150569000Y-151114347D02*
X150673653Y-151114347D01*
X167345464Y-151114347D02*
X149664347Y-151114347D01*
X173940811Y-144519000D02*
X167345464Y-151114347D01*
X181644000Y-144519000D02*
X173940811Y-144519000D01*
X183134000Y-143029000D02*
X181644000Y-144519000D01*
X183134000Y-143002000D02*
X183134000Y-143029000D01*
D27*
X132582567Y-113032771D02*
X132016882Y-113032771D01*
X132588000Y-113060000D02*
X132588000Y-113038204D01*
X132588000Y-113038204D02*
X132582567Y-113032771D01*
X132620000Y-118364000D02*
X131062671Y-118364000D01*
X131062671Y-118364000D02*
X130989640Y-118437031D01*
X123752871Y-129106768D02*
X123752871Y-124999872D01*
X124678996Y-120194001D02*
X127492001Y-120194001D01*
X123752871Y-124999872D02*
X122822999Y-124070000D01*
X129195001Y-118491001D02*
X129195001Y-117208761D01*
X127492001Y-120194001D02*
X129195001Y-118491001D01*
X123702874Y-130606769D02*
X123325874Y-130229769D01*
X123325874Y-130229769D02*
X123325874Y-129533765D01*
X124466233Y-130606769D02*
X123702874Y-130606769D01*
X122822999Y-124070000D02*
X122822999Y-122049998D01*
X129195001Y-117208761D02*
X131920979Y-114482783D01*
X132620000Y-118364000D02*
X132620000Y-119136839D01*
X133475010Y-121597992D02*
X124466233Y-130606769D01*
X123325874Y-129533765D02*
X123752871Y-129106768D01*
X132620000Y-119136839D02*
X133475010Y-119991849D01*
X122822999Y-122049998D02*
X124678996Y-120194001D01*
X133475010Y-119991849D02*
X133475010Y-121597992D01*
X135918283Y-105844000D02*
X137450990Y-107376707D01*
X135269000Y-105844000D02*
X135918283Y-105844000D01*
X133544000Y-105669000D02*
X128193994Y-105669000D01*
X128193994Y-105669000D02*
X128168994Y-105694000D01*
X123504395Y-137934844D02*
X123509979Y-137940428D01*
X123504395Y-137922000D02*
X123504395Y-137934844D01*
X129131258Y-141577258D02*
X129131258Y-148298419D01*
X129131258Y-148298419D02*
X129429187Y-148596348D01*
X125494428Y-137940428D02*
X129131258Y-141577258D01*
X129429187Y-148596348D02*
X129429187Y-149162033D01*
X123509979Y-137940428D02*
X125494428Y-137940428D01*
X129069990Y-137706000D02*
X137811277Y-146447287D01*
X127254000Y-137706000D02*
X129069990Y-137706000D01*
X122847753Y-133604000D02*
X122236966Y-132993213D01*
X125730000Y-133604000D02*
X122847753Y-133604000D01*
X127856988Y-134582016D02*
X127856988Y-131856602D01*
X131031661Y-127220656D02*
X135051989Y-123200328D01*
X126779035Y-135659969D02*
X127856988Y-134582016D01*
X127856988Y-131856602D02*
X131031661Y-128681929D01*
X122778786Y-136107002D02*
X124300002Y-136107002D01*
X131031661Y-128681929D02*
X131031661Y-127220656D01*
X124300002Y-136107002D02*
X124747035Y-135659969D01*
X121459954Y-137425834D02*
X122778786Y-136107002D01*
X124747035Y-135659969D02*
X126779035Y-135659969D01*
X137052999Y-111034999D02*
X137838001Y-111034999D01*
X137838001Y-111034999D02*
X138938000Y-112134998D01*
X136978000Y-110960000D02*
X137052999Y-111034999D01*
X136978000Y-110460000D02*
X136978000Y-110960000D01*
X138938000Y-112134998D02*
X138938000Y-115824000D01*
X138757744Y-134888343D02*
X129431999Y-134888343D01*
X129431999Y-134888343D02*
X129032000Y-134488344D01*
X139499729Y-134146358D02*
X138757744Y-134888343D01*
X122613414Y-134366000D02*
X122179401Y-133931987D01*
X122179401Y-133931987D02*
X121892416Y-133931987D01*
X127000000Y-134366000D02*
X122613414Y-134366000D01*
X146166000Y-111646999D02*
X147066000Y-112546999D01*
X138938000Y-111328587D02*
X140281599Y-109984988D01*
X147066000Y-112546999D02*
X147066000Y-133997000D01*
X144336412Y-111646999D02*
X146166000Y-111646999D01*
X140281599Y-109984988D02*
X142674401Y-109984988D01*
X138938000Y-115824000D02*
X138938000Y-111328587D01*
X147066000Y-133997000D02*
X143819000Y-137244000D01*
X142674401Y-109984988D02*
X144336412Y-111646999D01*
X138053001Y-113135001D02*
X137978000Y-113060000D01*
X137978000Y-113060000D02*
X136978000Y-113060000D01*
X138053001Y-118318999D02*
X138053001Y-113135001D01*
X137978000Y-118394000D02*
X138053001Y-118318999D01*
X137978000Y-118394000D02*
X136978000Y-118394000D01*
X138516987Y-121850010D02*
X139261990Y-121850010D01*
X139261990Y-121850010D02*
X139475010Y-121636990D01*
X138316999Y-122049998D02*
X138516987Y-121850010D01*
X138316999Y-124070000D02*
X138316999Y-122049998D01*
X138321999Y-124075000D02*
X138316999Y-124070000D01*
X139475010Y-119891010D02*
X137978000Y-118394000D01*
X138321999Y-130119001D02*
X138321999Y-124075000D01*
X139475010Y-121636990D02*
X139475010Y-119891010D01*
X137922000Y-130519000D02*
X138321999Y-130119001D01*
X131668880Y-113757773D02*
X131291880Y-113380773D01*
X132620000Y-115764000D02*
X132620000Y-115264000D01*
X131291880Y-110756120D02*
X131588000Y-110460000D01*
X132509642Y-113757773D02*
X131668880Y-113757773D01*
X132859885Y-115024115D02*
X132859885Y-114108016D01*
X132620000Y-115264000D02*
X132859885Y-115024115D01*
X131291880Y-113380773D02*
X131291880Y-110756120D01*
X131588000Y-110460000D02*
X132588000Y-110460000D01*
X132859885Y-114108016D02*
X132509642Y-113757773D01*
X132588000Y-115824000D02*
X131700410Y-115824000D01*
X131700410Y-115824000D02*
X129645012Y-117879398D01*
X127248769Y-121073644D02*
X124675766Y-121073644D01*
X129645012Y-117879398D02*
X129645012Y-118677401D01*
X124675766Y-129256877D02*
X124050876Y-129881767D01*
X124675766Y-121073644D02*
X124675766Y-129256877D01*
X129645012Y-118677401D02*
X127248769Y-121073644D01*
M02*
