G04 #@! TF.GenerationSoftware,KiCad,Pcbnew,(5.1.5-0-10_14)*
G04 #@! TF.CreationDate,2019-12-24T14:17:45-05:00*
G04 #@! TF.ProjectId,procon_gcc_button_board,70726f63-6f6e-45f6-9763-635f62757474,rev?*
G04 #@! TF.SameCoordinates,Original*
G04 #@! TF.FileFunction,Paste,Bot*
G04 #@! TF.FilePolarity,Positive*
%FSLAX46Y46*%
G04 Gerber Fmt 4.6, Leading zero omitted, Abs format (unit mm)*
G04 Created by KiCad (PCBNEW (5.1.5-0-10_14)) date 2019-12-24 14:17:45*
%MOMM*%
%LPD*%
G04 APERTURE LIST*
%ADD10R,2.000000X1.300000*%
%ADD11R,0.300000X1.000000*%
G04 APERTURE END LIST*
D10*
X129118900Y-48100000D03*
X122518900Y-48100000D03*
D11*
X126818900Y-50800000D03*
X126318900Y-50800000D03*
X125818900Y-50800000D03*
X125318900Y-50800000D03*
X124818900Y-50800000D03*
D10*
X94100000Y-75350000D03*
X83000000Y-75350000D03*
D11*
X91800000Y-78050000D03*
X91300000Y-78050000D03*
X90800000Y-78050000D03*
X90300000Y-78050000D03*
X89800000Y-78050000D03*
X89300000Y-78050000D03*
X88800000Y-78050000D03*
X88300000Y-78050000D03*
X87800000Y-78050000D03*
X87300000Y-78050000D03*
X86800000Y-78050000D03*
X86300000Y-78050000D03*
X85800000Y-78050000D03*
X85300000Y-78050000D03*
M02*
