G04 #@! TF.GenerationSoftware,KiCad,Pcbnew,(5.1.5-0-10_14)*
G04 #@! TF.CreationDate,2019-12-24T14:17:45-05:00*
G04 #@! TF.ProjectId,procon_gcc_button_board,70726f63-6f6e-45f6-9763-635f62757474,rev?*
G04 #@! TF.SameCoordinates,Original*
G04 #@! TF.FileFunction,Soldermask,Bot*
G04 #@! TF.FilePolarity,Negative*
%FSLAX46Y46*%
G04 Gerber Fmt 4.6, Leading zero omitted, Abs format (unit mm)*
G04 Created by KiCad (PCBNEW (5.1.5-0-10_14)) date 2019-12-24 14:17:45*
%MOMM*%
%LPD*%
G04 APERTURE LIST*
%ADD10C,0.100000*%
G04 APERTURE END LIST*
D10*
G36*
X92001000Y-78601000D02*
G01*
X85099000Y-78601000D01*
X85099000Y-77499000D01*
X92001000Y-77499000D01*
X92001000Y-78601000D01*
G37*
G36*
X84051000Y-76051000D02*
G01*
X81949000Y-76051000D01*
X81949000Y-74649000D01*
X84051000Y-74649000D01*
X84051000Y-76051000D01*
G37*
G36*
X95151000Y-76051000D02*
G01*
X93049000Y-76051000D01*
X93049000Y-74649000D01*
X95151000Y-74649000D01*
X95151000Y-76051000D01*
G37*
G36*
X102638822Y-68441741D02*
G01*
X102784594Y-68502122D01*
X102784596Y-68502123D01*
X102915788Y-68589782D01*
X103027358Y-68701352D01*
X103115017Y-68832544D01*
X103115018Y-68832546D01*
X103175399Y-68978318D01*
X103206180Y-69133067D01*
X103206180Y-69290853D01*
X103175399Y-69445602D01*
X103115018Y-69591374D01*
X103115017Y-69591376D01*
X103027358Y-69722568D01*
X102915788Y-69834138D01*
X102784596Y-69921797D01*
X102784595Y-69921798D01*
X102784594Y-69921798D01*
X102638822Y-69982179D01*
X102484073Y-70012960D01*
X102326287Y-70012960D01*
X102171538Y-69982179D01*
X102025766Y-69921798D01*
X102025765Y-69921798D01*
X102025764Y-69921797D01*
X101894572Y-69834138D01*
X101783002Y-69722568D01*
X101695343Y-69591376D01*
X101695342Y-69591374D01*
X101634961Y-69445602D01*
X101604180Y-69290853D01*
X101604180Y-69133067D01*
X101634961Y-68978318D01*
X101695342Y-68832546D01*
X101695343Y-68832544D01*
X101783002Y-68701352D01*
X101894572Y-68589782D01*
X102025764Y-68502123D01*
X102025766Y-68502122D01*
X102171538Y-68441741D01*
X102326287Y-68410960D01*
X102484073Y-68410960D01*
X102638822Y-68441741D01*
G37*
G36*
X98638822Y-64441741D02*
G01*
X98784594Y-64502122D01*
X98784596Y-64502123D01*
X98915788Y-64589782D01*
X99027358Y-64701352D01*
X99115017Y-64832544D01*
X99115018Y-64832546D01*
X99175399Y-64978318D01*
X99206180Y-65133067D01*
X99206180Y-65290853D01*
X99175399Y-65445602D01*
X99115018Y-65591374D01*
X99115017Y-65591376D01*
X99027358Y-65722568D01*
X98915788Y-65834138D01*
X98784596Y-65921797D01*
X98784595Y-65921798D01*
X98784594Y-65921798D01*
X98638822Y-65982179D01*
X98484073Y-66012960D01*
X98326287Y-66012960D01*
X98171538Y-65982179D01*
X98025766Y-65921798D01*
X98025765Y-65921798D01*
X98025764Y-65921797D01*
X97894572Y-65834138D01*
X97783002Y-65722568D01*
X97695343Y-65591376D01*
X97695342Y-65591374D01*
X97634961Y-65445602D01*
X97604180Y-65290853D01*
X97604180Y-65133067D01*
X97634961Y-64978318D01*
X97695342Y-64832546D01*
X97695343Y-64832544D01*
X97783002Y-64701352D01*
X97894572Y-64589782D01*
X98025764Y-64502123D01*
X98025766Y-64502122D01*
X98171538Y-64441741D01*
X98326287Y-64410960D01*
X98484073Y-64410960D01*
X98638822Y-64441741D01*
G37*
G36*
X106638822Y-64441741D02*
G01*
X106784594Y-64502122D01*
X106784596Y-64502123D01*
X106915788Y-64589782D01*
X107027358Y-64701352D01*
X107115017Y-64832544D01*
X107115018Y-64832546D01*
X107175399Y-64978318D01*
X107206180Y-65133067D01*
X107206180Y-65290853D01*
X107175399Y-65445602D01*
X107115018Y-65591374D01*
X107115017Y-65591376D01*
X107027358Y-65722568D01*
X106915788Y-65834138D01*
X106784596Y-65921797D01*
X106784595Y-65921798D01*
X106784594Y-65921798D01*
X106638822Y-65982179D01*
X106484073Y-66012960D01*
X106326287Y-66012960D01*
X106171538Y-65982179D01*
X106025766Y-65921798D01*
X106025765Y-65921798D01*
X106025764Y-65921797D01*
X105894572Y-65834138D01*
X105783002Y-65722568D01*
X105695343Y-65591376D01*
X105695342Y-65591374D01*
X105634961Y-65445602D01*
X105604180Y-65290853D01*
X105604180Y-65133067D01*
X105634961Y-64978318D01*
X105695342Y-64832546D01*
X105695343Y-64832544D01*
X105783002Y-64701352D01*
X105894572Y-64589782D01*
X106025764Y-64502123D01*
X106025766Y-64502122D01*
X106171538Y-64441741D01*
X106326287Y-64410960D01*
X106484073Y-64410960D01*
X106638822Y-64441741D01*
G37*
G36*
X102638822Y-60441741D02*
G01*
X102784594Y-60502122D01*
X102784596Y-60502123D01*
X102915788Y-60589782D01*
X103027358Y-60701352D01*
X103115017Y-60832544D01*
X103115018Y-60832546D01*
X103175399Y-60978318D01*
X103206180Y-61133067D01*
X103206180Y-61290853D01*
X103175399Y-61445602D01*
X103115018Y-61591374D01*
X103115017Y-61591376D01*
X103027358Y-61722568D01*
X102915788Y-61834138D01*
X102784596Y-61921797D01*
X102784595Y-61921798D01*
X102784594Y-61921798D01*
X102638822Y-61982179D01*
X102484073Y-62012960D01*
X102326287Y-62012960D01*
X102171538Y-61982179D01*
X102025766Y-61921798D01*
X102025765Y-61921798D01*
X102025764Y-61921797D01*
X101894572Y-61834138D01*
X101783002Y-61722568D01*
X101695343Y-61591376D01*
X101695342Y-61591374D01*
X101634961Y-61445602D01*
X101604180Y-61290853D01*
X101604180Y-61133067D01*
X101634961Y-60978318D01*
X101695342Y-60832546D01*
X101695343Y-60832544D01*
X101783002Y-60701352D01*
X101894572Y-60589782D01*
X102025764Y-60502123D01*
X102025766Y-60502122D01*
X102171538Y-60441741D01*
X102326287Y-60410960D01*
X102484073Y-60410960D01*
X102638822Y-60441741D01*
G37*
G36*
X127019900Y-51351000D02*
G01*
X124617900Y-51351000D01*
X124617900Y-50249000D01*
X127019900Y-50249000D01*
X127019900Y-51351000D01*
G37*
G36*
X166242962Y-47895681D02*
G01*
X166388734Y-47956062D01*
X166388736Y-47956063D01*
X166519928Y-48043722D01*
X166631498Y-48155292D01*
X166705709Y-48266358D01*
X166719158Y-48286486D01*
X166779539Y-48432258D01*
X166810320Y-48587007D01*
X166810320Y-48744793D01*
X166779539Y-48899542D01*
X166719158Y-49045314D01*
X166719157Y-49045316D01*
X166631498Y-49176508D01*
X166519928Y-49288078D01*
X166388736Y-49375737D01*
X166388735Y-49375738D01*
X166388734Y-49375738D01*
X166242962Y-49436119D01*
X166088213Y-49466900D01*
X165930427Y-49466900D01*
X165775678Y-49436119D01*
X165629906Y-49375738D01*
X165629905Y-49375738D01*
X165629904Y-49375737D01*
X165498712Y-49288078D01*
X165387142Y-49176508D01*
X165299483Y-49045316D01*
X165299482Y-49045314D01*
X165239101Y-48899542D01*
X165208320Y-48744793D01*
X165208320Y-48587007D01*
X165239101Y-48432258D01*
X165299482Y-48286486D01*
X165312931Y-48266358D01*
X165387142Y-48155292D01*
X165498712Y-48043722D01*
X165629904Y-47956063D01*
X165629906Y-47956062D01*
X165775678Y-47895681D01*
X165930427Y-47864900D01*
X166088213Y-47864900D01*
X166242962Y-47895681D01*
G37*
G36*
X118658642Y-47729781D02*
G01*
X118804414Y-47790162D01*
X118804416Y-47790163D01*
X118935608Y-47877822D01*
X119047178Y-47989392D01*
X119134837Y-48120584D01*
X119134838Y-48120586D01*
X119195219Y-48266358D01*
X119226000Y-48421107D01*
X119226000Y-48578893D01*
X119195219Y-48733642D01*
X119190600Y-48744792D01*
X119134837Y-48879416D01*
X119047178Y-49010608D01*
X118935608Y-49122178D01*
X118804416Y-49209837D01*
X118804415Y-49209838D01*
X118804414Y-49209838D01*
X118658642Y-49270219D01*
X118503893Y-49301000D01*
X118346107Y-49301000D01*
X118191358Y-49270219D01*
X118045586Y-49209838D01*
X118045585Y-49209838D01*
X118045584Y-49209837D01*
X117914392Y-49122178D01*
X117802822Y-49010608D01*
X117715163Y-48879416D01*
X117659400Y-48744792D01*
X117654781Y-48733642D01*
X117624000Y-48578893D01*
X117624000Y-48421107D01*
X117654781Y-48266358D01*
X117715162Y-48120586D01*
X117715163Y-48120584D01*
X117802822Y-47989392D01*
X117914392Y-47877822D01*
X118045584Y-47790163D01*
X118045586Y-47790162D01*
X118191358Y-47729781D01*
X118346107Y-47699000D01*
X118503893Y-47699000D01*
X118658642Y-47729781D01*
G37*
G36*
X130169900Y-48801000D02*
G01*
X128067900Y-48801000D01*
X128067900Y-47399000D01*
X130169900Y-47399000D01*
X130169900Y-48801000D01*
G37*
G36*
X123569900Y-48801000D02*
G01*
X121467900Y-48801000D01*
X121467900Y-47399000D01*
X123569900Y-47399000D01*
X123569900Y-48801000D01*
G37*
G36*
X118633642Y-44904781D02*
G01*
X118779414Y-44965162D01*
X118779416Y-44965163D01*
X118910608Y-45052822D01*
X119022178Y-45164392D01*
X119109837Y-45295584D01*
X119109838Y-45295586D01*
X119170219Y-45441358D01*
X119201000Y-45596107D01*
X119201000Y-45753893D01*
X119170219Y-45908642D01*
X119109838Y-46054414D01*
X119109837Y-46054416D01*
X119022178Y-46185608D01*
X118910608Y-46297178D01*
X118779416Y-46384837D01*
X118779415Y-46384838D01*
X118779414Y-46384838D01*
X118633642Y-46445219D01*
X118478893Y-46476000D01*
X118321107Y-46476000D01*
X118166358Y-46445219D01*
X118020586Y-46384838D01*
X118020585Y-46384838D01*
X118020584Y-46384837D01*
X117889392Y-46297178D01*
X117777822Y-46185608D01*
X117690163Y-46054416D01*
X117690162Y-46054414D01*
X117629781Y-45908642D01*
X117599000Y-45753893D01*
X117599000Y-45596107D01*
X117629781Y-45441358D01*
X117690162Y-45295586D01*
X117690163Y-45295584D01*
X117777822Y-45164392D01*
X117889392Y-45052822D01*
X118020584Y-44965163D01*
X118020586Y-44965162D01*
X118166358Y-44904781D01*
X118321107Y-44874000D01*
X118478893Y-44874000D01*
X118633642Y-44904781D01*
G37*
G36*
X170242962Y-43895681D02*
G01*
X170388734Y-43956062D01*
X170388736Y-43956063D01*
X170519928Y-44043722D01*
X170631498Y-44155292D01*
X170719157Y-44286484D01*
X170719158Y-44286486D01*
X170779539Y-44432258D01*
X170810320Y-44587007D01*
X170810320Y-44744793D01*
X170779539Y-44899542D01*
X170719158Y-45045314D01*
X170719157Y-45045316D01*
X170631498Y-45176508D01*
X170519928Y-45288078D01*
X170388736Y-45375737D01*
X170388735Y-45375738D01*
X170388734Y-45375738D01*
X170242962Y-45436119D01*
X170088213Y-45466900D01*
X169930427Y-45466900D01*
X169775678Y-45436119D01*
X169629906Y-45375738D01*
X169629905Y-45375738D01*
X169629904Y-45375737D01*
X169498712Y-45288078D01*
X169387142Y-45176508D01*
X169299483Y-45045316D01*
X169299482Y-45045314D01*
X169239101Y-44899542D01*
X169208320Y-44744793D01*
X169208320Y-44587007D01*
X169239101Y-44432258D01*
X169299482Y-44286486D01*
X169299483Y-44286484D01*
X169387142Y-44155292D01*
X169498712Y-44043722D01*
X169629904Y-43956063D01*
X169629906Y-43956062D01*
X169775678Y-43895681D01*
X169930427Y-43864900D01*
X170088213Y-43864900D01*
X170242962Y-43895681D01*
G37*
G36*
X162242962Y-43895681D02*
G01*
X162388734Y-43956062D01*
X162388736Y-43956063D01*
X162519928Y-44043722D01*
X162631498Y-44155292D01*
X162719157Y-44286484D01*
X162719158Y-44286486D01*
X162779539Y-44432258D01*
X162810320Y-44587007D01*
X162810320Y-44744793D01*
X162779539Y-44899542D01*
X162719158Y-45045314D01*
X162719157Y-45045316D01*
X162631498Y-45176508D01*
X162519928Y-45288078D01*
X162388736Y-45375737D01*
X162388735Y-45375738D01*
X162388734Y-45375738D01*
X162242962Y-45436119D01*
X162088213Y-45466900D01*
X161930427Y-45466900D01*
X161775678Y-45436119D01*
X161629906Y-45375738D01*
X161629905Y-45375738D01*
X161629904Y-45375737D01*
X161498712Y-45288078D01*
X161387142Y-45176508D01*
X161299483Y-45045316D01*
X161299482Y-45045314D01*
X161239101Y-44899542D01*
X161208320Y-44744793D01*
X161208320Y-44587007D01*
X161239101Y-44432258D01*
X161299482Y-44286486D01*
X161299483Y-44286484D01*
X161387142Y-44155292D01*
X161498712Y-44043722D01*
X161629904Y-43956063D01*
X161629906Y-43956062D01*
X161775678Y-43895681D01*
X161930427Y-43864900D01*
X162088213Y-43864900D01*
X162242962Y-43895681D01*
G37*
G36*
X118583642Y-42004781D02*
G01*
X118729414Y-42065162D01*
X118729416Y-42065163D01*
X118860608Y-42152822D01*
X118972178Y-42264392D01*
X119059837Y-42395584D01*
X119059838Y-42395586D01*
X119120219Y-42541358D01*
X119151000Y-42696107D01*
X119151000Y-42853893D01*
X119120219Y-43008642D01*
X119059838Y-43154414D01*
X119059837Y-43154416D01*
X118972178Y-43285608D01*
X118860608Y-43397178D01*
X118729416Y-43484837D01*
X118729415Y-43484838D01*
X118729414Y-43484838D01*
X118583642Y-43545219D01*
X118428893Y-43576000D01*
X118271107Y-43576000D01*
X118116358Y-43545219D01*
X117970586Y-43484838D01*
X117970585Y-43484838D01*
X117970584Y-43484837D01*
X117839392Y-43397178D01*
X117727822Y-43285608D01*
X117640163Y-43154416D01*
X117640162Y-43154414D01*
X117579781Y-43008642D01*
X117549000Y-42853893D01*
X117549000Y-42696107D01*
X117579781Y-42541358D01*
X117640162Y-42395586D01*
X117640163Y-42395584D01*
X117727822Y-42264392D01*
X117839392Y-42152822D01*
X117970584Y-42065163D01*
X117970586Y-42065162D01*
X118116358Y-42004781D01*
X118271107Y-41974000D01*
X118428893Y-41974000D01*
X118583642Y-42004781D01*
G37*
G36*
X166242962Y-39895681D02*
G01*
X166388734Y-39956062D01*
X166388736Y-39956063D01*
X166519928Y-40043722D01*
X166631498Y-40155292D01*
X166650441Y-40183643D01*
X166719158Y-40286486D01*
X166779539Y-40432258D01*
X166810320Y-40587007D01*
X166810320Y-40744793D01*
X166779539Y-40899542D01*
X166719158Y-41045314D01*
X166719157Y-41045316D01*
X166631498Y-41176508D01*
X166519928Y-41288078D01*
X166388736Y-41375737D01*
X166388735Y-41375738D01*
X166388734Y-41375738D01*
X166242962Y-41436119D01*
X166088213Y-41466900D01*
X165930427Y-41466900D01*
X165775678Y-41436119D01*
X165629906Y-41375738D01*
X165629905Y-41375738D01*
X165629904Y-41375737D01*
X165498712Y-41288078D01*
X165387142Y-41176508D01*
X165299483Y-41045316D01*
X165299482Y-41045314D01*
X165239101Y-40899542D01*
X165208320Y-40744793D01*
X165208320Y-40587007D01*
X165239101Y-40432258D01*
X165299482Y-40286486D01*
X165368199Y-40183643D01*
X165387142Y-40155292D01*
X165498712Y-40043722D01*
X165629904Y-39956063D01*
X165629906Y-39956062D01*
X165775678Y-39895681D01*
X165930427Y-39864900D01*
X166088213Y-39864900D01*
X166242962Y-39895681D01*
G37*
G36*
X118608642Y-39179781D02*
G01*
X118754414Y-39240162D01*
X118754416Y-39240163D01*
X118885608Y-39327822D01*
X118997178Y-39439392D01*
X119084837Y-39570584D01*
X119084838Y-39570586D01*
X119145219Y-39716358D01*
X119176000Y-39871107D01*
X119176000Y-40028893D01*
X119145219Y-40183642D01*
X119102620Y-40286484D01*
X119084837Y-40329416D01*
X118997178Y-40460608D01*
X118885608Y-40572178D01*
X118754416Y-40659837D01*
X118754415Y-40659838D01*
X118754414Y-40659838D01*
X118608642Y-40720219D01*
X118453893Y-40751000D01*
X118296107Y-40751000D01*
X118141358Y-40720219D01*
X117995586Y-40659838D01*
X117995585Y-40659838D01*
X117995584Y-40659837D01*
X117864392Y-40572178D01*
X117752822Y-40460608D01*
X117665163Y-40329416D01*
X117647380Y-40286484D01*
X117604781Y-40183642D01*
X117574000Y-40028893D01*
X117574000Y-39871107D01*
X117604781Y-39716358D01*
X117665162Y-39570586D01*
X117665163Y-39570584D01*
X117752822Y-39439392D01*
X117864392Y-39327822D01*
X117995584Y-39240163D01*
X117995586Y-39240162D01*
X118141358Y-39179781D01*
X118296107Y-39149000D01*
X118453893Y-39149000D01*
X118608642Y-39179781D01*
G37*
G36*
X118583642Y-36354781D02*
G01*
X118729414Y-36415162D01*
X118729416Y-36415163D01*
X118860608Y-36502822D01*
X118972178Y-36614392D01*
X119059837Y-36745584D01*
X119059838Y-36745586D01*
X119120219Y-36891358D01*
X119151000Y-37046107D01*
X119151000Y-37203893D01*
X119120219Y-37358642D01*
X119059838Y-37504414D01*
X119059837Y-37504416D01*
X118972178Y-37635608D01*
X118860608Y-37747178D01*
X118729416Y-37834837D01*
X118729415Y-37834838D01*
X118729414Y-37834838D01*
X118583642Y-37895219D01*
X118428893Y-37926000D01*
X118271107Y-37926000D01*
X118116358Y-37895219D01*
X117970586Y-37834838D01*
X117970585Y-37834838D01*
X117970584Y-37834837D01*
X117839392Y-37747178D01*
X117727822Y-37635608D01*
X117640163Y-37504416D01*
X117640162Y-37504414D01*
X117579781Y-37358642D01*
X117549000Y-37203893D01*
X117549000Y-37046107D01*
X117579781Y-36891358D01*
X117640162Y-36745586D01*
X117640163Y-36745584D01*
X117727822Y-36614392D01*
X117839392Y-36502822D01*
X117970584Y-36415163D01*
X117970586Y-36415162D01*
X118116358Y-36354781D01*
X118271107Y-36324000D01*
X118428893Y-36324000D01*
X118583642Y-36354781D01*
G37*
G36*
X144759642Y-31995781D02*
G01*
X144905414Y-32056162D01*
X144905416Y-32056163D01*
X145036608Y-32143822D01*
X145148178Y-32255392D01*
X145235837Y-32386584D01*
X145235838Y-32386586D01*
X145296219Y-32532358D01*
X145327000Y-32687107D01*
X145327000Y-32844893D01*
X145296219Y-32999642D01*
X145235838Y-33145414D01*
X145235837Y-33145416D01*
X145148178Y-33276608D01*
X145036608Y-33388178D01*
X144905416Y-33475837D01*
X144905415Y-33475838D01*
X144905414Y-33475838D01*
X144759642Y-33536219D01*
X144604893Y-33567000D01*
X144447107Y-33567000D01*
X144292358Y-33536219D01*
X144146586Y-33475838D01*
X144146585Y-33475838D01*
X144146584Y-33475837D01*
X144015392Y-33388178D01*
X143903822Y-33276608D01*
X143816163Y-33145416D01*
X143816162Y-33145414D01*
X143755781Y-32999642D01*
X143725000Y-32844893D01*
X143725000Y-32687107D01*
X143755781Y-32532358D01*
X143816162Y-32386586D01*
X143816163Y-32386584D01*
X143903822Y-32255392D01*
X144015392Y-32143822D01*
X144146584Y-32056163D01*
X144146586Y-32056162D01*
X144292358Y-31995781D01*
X144447107Y-31965000D01*
X144604893Y-31965000D01*
X144759642Y-31995781D01*
G37*
M02*
